2001.09.06 13:38 B W:\AEI\Produccio\ictol\source\lib\dynapi\api\browser.js --> mis.ictnet.es /E:/MIS/ictonline/source/lib/dynapi/api browser.js
2001.09.06 13:38 B W:\AEI\Produccio\ictol\source\lib\dynapi\api\dragevent.js --> mis.ictnet.es /E:/MIS/ictonline/source/lib/dynapi/api dragevent.js
2001.09.06 13:38 B W:\AEI\Produccio\ictol\source\lib\dynapi\api\dyndocument.js --> mis.ictnet.es /E:/MIS/ictonline/source/lib/dynapi/api dyndocument.js
2001.09.06 13:38 B W:\AEI\Produccio\ictol\source\lib\dynapi\api\dynlayer.js --> mis.ictnet.es /E:/MIS/ictonline/source/lib/dynapi/api dynlayer.js
2001.09.06 13:38 B W:\AEI\Produccio\ictol\source\lib\dynapi\api\events.js --> mis.ictnet.es /E:/MIS/ictonline/source/lib/dynapi/api events.js
2001.09.26 15:48 B W:\AEI\Produccio\ictol\source\lib\dynapi\api\browser.js --> ictonline.ictnet.es /lib/dynapi/api browser.js
2001.09.26 15:48 B W:\AEI\Produccio\ictol\source\lib\dynapi\api\dragevent.js --> ictonline.ictnet.es /lib/dynapi/api dragevent.js
2001.09.26 15:48 B W:\AEI\Produccio\ictol\source\lib\dynapi\api\dyndocument.js --> ictonline.ictnet.es /lib/dynapi/api dyndocument.js
2001.09.26 15:48 B W:\AEI\Produccio\ictol\source\lib\dynapi\api\dynlayer.js --> ictonline.ictnet.es /lib/dynapi/api dynlayer.js
2001.09.26 15:48 B W:\AEI\Produccio\ictol\source\lib\dynapi\api\events.js --> ictonline.ictnet.es /lib/dynapi/api events.js
2001.09.26 15:48 B W:\AEI\Produccio\ictol\source\lib\dynapi\api\WS_FTP.LOG --> ictonline.ictnet.es /lib/dynapi/api WS_FTP.LOG
2001.10.23 11:39 B W:\AEI\Produccio\ictol\source\lib\dynapi\api\browser.js --> ictonline.ictnet.es /lib/dynapi/api browser.js
2001.10.23 11:39 B W:\AEI\Produccio\ictol\source\lib\dynapi\api\dragevent.js --> ictonline.ictnet.es /lib/dynapi/api dragevent.js
2001.10.23 11:39 B W:\AEI\Produccio\ictol\source\lib\dynapi\api\dyndocument.js --> ictonline.ictnet.es /lib/dynapi/api dyndocument.js
2001.10.23 11:39 B W:\AEI\Produccio\ictol\source\lib\dynapi\api\dynlayer.js --> ictonline.ictnet.es /lib/dynapi/api dynlayer.js
2001.10.23 11:39 B W:\AEI\Produccio\ictol\source\lib\dynapi\api\events.js --> ictonline.ictnet.es /lib/dynapi/api events.js
2001.10.23 11:39 B W:\AEI\Produccio\ictol\source\lib\dynapi\api\WS_FTP.LOG --> ictonline.ictnet.es /lib/dynapi/api WS_FTP.LOG
