2001.09.06 13:39 B W:\AEI\Produccio\ictol\source\lib\dynapi\images\scroll\scroll-img-bar.gif --> mis.ictnet.es /E:/MIS/ictonline/source/lib/dynapi/images/scroll scroll-img-bar.gif
2001.09.06 13:39 B W:\AEI\Produccio\ictol\source\lib\dynapi\images\scroll\scroll-img-box0.gif --> mis.ictnet.es /E:/MIS/ictonline/source/lib/dynapi/images/scroll scroll-img-box0.gif
2001.09.06 13:39 B W:\AEI\Produccio\ictol\source\lib\dynapi\images\scroll\scroll-img-box1.gif --> mis.ictnet.es /E:/MIS/ictonline/source/lib/dynapi/images/scroll scroll-img-box1.gif
2001.09.06 13:39 B W:\AEI\Produccio\ictol\source\lib\dynapi\images\scroll\scroll-img-dn0.gif --> mis.ictnet.es /E:/MIS/ictonline/source/lib/dynapi/images/scroll scroll-img-dn0.gif
2001.09.06 13:39 B W:\AEI\Produccio\ictol\source\lib\dynapi\images\scroll\scroll-img-dn1.gif --> mis.ictnet.es /E:/MIS/ictonline/source/lib/dynapi/images/scroll scroll-img-dn1.gif
2001.09.06 13:39 B W:\AEI\Produccio\ictol\source\lib\dynapi\images\scroll\scroll-img-up0.gif --> mis.ictnet.es /E:/MIS/ictonline/source/lib/dynapi/images/scroll scroll-img-up0.gif
2001.09.06 13:39 B W:\AEI\Produccio\ictol\source\lib\dynapi\images\scroll\scroll-img-up1.gif --> mis.ictnet.es /E:/MIS/ictonline/source/lib/dynapi/images/scroll scroll-img-up1.gif
2001.09.26 15:48 B W:\AEI\Produccio\ictol\source\lib\dynapi\images\scroll\scroll-img-bar.gif --> ictonline.ictnet.es /lib/dynapi/images/scroll scroll-img-bar.gif
2001.09.26 15:48 B W:\AEI\Produccio\ictol\source\lib\dynapi\images\scroll\scroll-img-box0.gif --> ictonline.ictnet.es /lib/dynapi/images/scroll scroll-img-box0.gif
2001.09.26 15:48 B W:\AEI\Produccio\ictol\source\lib\dynapi\images\scroll\scroll-img-box1.gif --> ictonline.ictnet.es /lib/dynapi/images/scroll scroll-img-box1.gif
2001.09.26 15:48 B W:\AEI\Produccio\ictol\source\lib\dynapi\images\scroll\scroll-img-dn0.gif --> ictonline.ictnet.es /lib/dynapi/images/scroll scroll-img-dn0.gif
2001.09.26 15:48 B W:\AEI\Produccio\ictol\source\lib\dynapi\images\scroll\scroll-img-dn1.gif --> ictonline.ictnet.es /lib/dynapi/images/scroll scroll-img-dn1.gif
2001.09.26 15:48 B W:\AEI\Produccio\ictol\source\lib\dynapi\images\scroll\scroll-img-up0.gif --> ictonline.ictnet.es /lib/dynapi/images/scroll scroll-img-up0.gif
2001.09.26 15:48 B W:\AEI\Produccio\ictol\source\lib\dynapi\images\scroll\scroll-img-up1.gif --> ictonline.ictnet.es /lib/dynapi/images/scroll scroll-img-up1.gif
2001.09.26 15:48 B W:\AEI\Produccio\ictol\source\lib\dynapi\images\scroll\WS_FTP.LOG --> ictonline.ictnet.es /lib/dynapi/images/scroll WS_FTP.LOG
2001.10.23 11:39 B W:\AEI\Produccio\ictol\source\lib\dynapi\images\scroll\scroll-img-bar.gif --> ictonline.ictnet.es /lib/dynapi/images/scroll scroll-img-bar.gif
2001.10.23 11:39 B W:\AEI\Produccio\ictol\source\lib\dynapi\images\scroll\scroll-img-box0.gif --> ictonline.ictnet.es /lib/dynapi/images/scroll scroll-img-box0.gif
2001.10.23 11:39 B W:\AEI\Produccio\ictol\source\lib\dynapi\images\scroll\scroll-img-box1.gif --> ictonline.ictnet.es /lib/dynapi/images/scroll scroll-img-box1.gif
2001.10.23 11:39 B W:\AEI\Produccio\ictol\source\lib\dynapi\images\scroll\scroll-img-dn0.gif --> ictonline.ictnet.es /lib/dynapi/images/scroll scroll-img-dn0.gif
2001.10.23 11:39 B W:\AEI\Produccio\ictol\source\lib\dynapi\images\scroll\scroll-img-dn1.gif --> ictonline.ictnet.es /lib/dynapi/images/scroll scroll-img-dn1.gif
2001.10.23 11:39 B W:\AEI\Produccio\ictol\source\lib\dynapi\images\scroll\scroll-img-up0.gif --> ictonline.ictnet.es /lib/dynapi/images/scroll scroll-img-up0.gif
2001.10.23 11:39 B W:\AEI\Produccio\ictol\source\lib\dynapi\images\scroll\scroll-img-up1.gif --> ictonline.ictnet.es /lib/dynapi/images/scroll scroll-img-up1.gif
2001.10.23 11:39 B W:\AEI\Produccio\ictol\source\lib\dynapi\images\scroll\WS_FTP.LOG --> ictonline.ictnet.es /lib/dynapi/images/scroll WS_FTP.LOG
