MSH|^~\&|OpenSIC|MCM|LABADT|MCM|198808181126|SECURITY|ADT^A34|MSG00001|P|2.3|
EVN|A34|198808181123||
PID|||2||JONES^WILLIAM^A^III||19610615|M-||C|1200 N ELM STREET^^GREENSBORO^NC^27401-1020|GL|(91-9)379-1212|(919)271-3434||S||PATID12345001^2^M10|123456789|9-87654^NC|
MRG|3||||||||
