2001.09.06 13:38 B W:\AEI\Produccio\ictol\source\lib\dynapi\images\dynwindow\border-h.gif --> mis.ictnet.es /E:/MIS/ictonline/source/lib/dynapi/images/dynwindow border-h.gif
2001.09.06 13:38 B W:\AEI\Produccio\ictol\source\lib\dynapi\images\dynwindow\border-v.gif --> mis.ictnet.es /E:/MIS/ictonline/source/lib/dynapi/images/dynwindow border-v.gif
2001.09.06 13:38 B W:\AEI\Produccio\ictol\source\lib\dynapi\images\dynwindow\close0.gif --> mis.ictnet.es /E:/MIS/ictonline/source/lib/dynapi/images/dynwindow close0.gif
2001.09.06 13:38 B W:\AEI\Produccio\ictol\source\lib\dynapi\images\dynwindow\close1.gif --> mis.ictnet.es /E:/MIS/ictonline/source/lib/dynapi/images/dynwindow close1.gif
2001.09.06 13:38 B W:\AEI\Produccio\ictol\source\lib\dynapi\images\dynwindow\corner-bl.gif --> mis.ictnet.es /E:/MIS/ictonline/source/lib/dynapi/images/dynwindow corner-bl.gif
2001.09.06 13:38 B W:\AEI\Produccio\ictol\source\lib\dynapi\images\dynwindow\corner-br.gif --> mis.ictnet.es /E:/MIS/ictonline/source/lib/dynapi/images/dynwindow corner-br.gif
2001.09.06 13:38 B W:\AEI\Produccio\ictol\source\lib\dynapi\images\dynwindow\corner-tl.gif --> mis.ictnet.es /E:/MIS/ictonline/source/lib/dynapi/images/dynwindow corner-tl.gif
2001.09.06 13:38 B W:\AEI\Produccio\ictol\source\lib\dynapi\images\dynwindow\corner-tr.gif --> mis.ictnet.es /E:/MIS/ictonline/source/lib/dynapi/images/dynwindow corner-tr.gif
2001.09.06 13:38 B W:\AEI\Produccio\ictol\source\lib\dynapi\images\dynwindow\icon.gif --> mis.ictnet.es /E:/MIS/ictonline/source/lib/dynapi/images/dynwindow icon.gif
2001.09.06 13:38 B W:\AEI\Produccio\ictol\source\lib\dynapi\images\dynwindow\max0.gif --> mis.ictnet.es /E:/MIS/ictonline/source/lib/dynapi/images/dynwindow max0.gif
2001.09.06 13:38 B W:\AEI\Produccio\ictol\source\lib\dynapi\images\dynwindow\max1.gif --> mis.ictnet.es /E:/MIS/ictonline/source/lib/dynapi/images/dynwindow max1.gif
2001.09.06 13:38 B W:\AEI\Produccio\ictol\source\lib\dynapi\images\dynwindow\min0.gif --> mis.ictnet.es /E:/MIS/ictonline/source/lib/dynapi/images/dynwindow min0.gif
2001.09.06 13:38 B W:\AEI\Produccio\ictol\source\lib\dynapi\images\dynwindow\min1.gif --> mis.ictnet.es /E:/MIS/ictonline/source/lib/dynapi/images/dynwindow min1.gif
2001.09.06 13:38 B W:\AEI\Produccio\ictol\source\lib\dynapi\images\dynwindow\title-bg.gif --> mis.ictnet.es /E:/MIS/ictonline/source/lib/dynapi/images/dynwindow title-bg.gif
2001.09.26 15:48 B W:\AEI\Produccio\ictol\source\lib\dynapi\images\dynwindow\border-h.gif --> ictonline.ictnet.es /lib/dynapi/images/dynwindow border-h.gif
2001.09.26 15:48 B W:\AEI\Produccio\ictol\source\lib\dynapi\images\dynwindow\border-v.gif --> ictonline.ictnet.es /lib/dynapi/images/dynwindow border-v.gif
2001.09.26 15:48 B W:\AEI\Produccio\ictol\source\lib\dynapi\images\dynwindow\close0.gif --> ictonline.ictnet.es /lib/dynapi/images/dynwindow close0.gif
2001.09.26 15:48 B W:\AEI\Produccio\ictol\source\lib\dynapi\images\dynwindow\close1.gif --> ictonline.ictnet.es /lib/dynapi/images/dynwindow close1.gif
2001.09.26 15:48 B W:\AEI\Produccio\ictol\source\lib\dynapi\images\dynwindow\corner-bl.gif --> ictonline.ictnet.es /lib/dynapi/images/dynwindow corner-bl.gif
2001.09.26 15:48 B W:\AEI\Produccio\ictol\source\lib\dynapi\images\dynwindow\corner-br.gif --> ictonline.ictnet.es /lib/dynapi/images/dynwindow corner-br.gif
2001.09.26 15:48 B W:\AEI\Produccio\ictol\source\lib\dynapi\images\dynwindow\corner-tl.gif --> ictonline.ictnet.es /lib/dynapi/images/dynwindow corner-tl.gif
2001.09.26 15:48 B W:\AEI\Produccio\ictol\source\lib\dynapi\images\dynwindow\corner-tr.gif --> ictonline.ictnet.es /lib/dynapi/images/dynwindow corner-tr.gif
2001.09.26 15:48 B W:\AEI\Produccio\ictol\source\lib\dynapi\images\dynwindow\icon.gif --> ictonline.ictnet.es /lib/dynapi/images/dynwindow icon.gif
2001.09.26 15:48 B W:\AEI\Produccio\ictol\source\lib\dynapi\images\dynwindow\max0.gif --> ictonline.ictnet.es /lib/dynapi/images/dynwindow max0.gif
2001.09.26 15:48 B W:\AEI\Produccio\ictol\source\lib\dynapi\images\dynwindow\max1.gif --> ictonline.ictnet.es /lib/dynapi/images/dynwindow max1.gif
2001.09.26 15:48 B W:\AEI\Produccio\ictol\source\lib\dynapi\images\dynwindow\min0.gif --> ictonline.ictnet.es /lib/dynapi/images/dynwindow min0.gif
2001.09.26 15:48 B W:\AEI\Produccio\ictol\source\lib\dynapi\images\dynwindow\min1.gif --> ictonline.ictnet.es /lib/dynapi/images/dynwindow min1.gif
2001.09.26 15:48 B W:\AEI\Produccio\ictol\source\lib\dynapi\images\dynwindow\title-bg.gif --> ictonline.ictnet.es /lib/dynapi/images/dynwindow title-bg.gif
2001.09.26 15:48 B W:\AEI\Produccio\ictol\source\lib\dynapi\images\dynwindow\WS_FTP.LOG --> ictonline.ictnet.es /lib/dynapi/images/dynwindow WS_FTP.LOG
2001.10.23 11:39 B W:\AEI\Produccio\ictol\source\lib\dynapi\images\dynwindow\border-h.gif --> ictonline.ictnet.es /lib/dynapi/images/dynwindow border-h.gif
2001.10.23 11:39 B W:\AEI\Produccio\ictol\source\lib\dynapi\images\dynwindow\border-v.gif --> ictonline.ictnet.es /lib/dynapi/images/dynwindow border-v.gif
2001.10.23 11:39 B W:\AEI\Produccio\ictol\source\lib\dynapi\images\dynwindow\close0.gif --> ictonline.ictnet.es /lib/dynapi/images/dynwindow close0.gif
2001.10.23 11:39 B W:\AEI\Produccio\ictol\source\lib\dynapi\images\dynwindow\close1.gif --> ictonline.ictnet.es /lib/dynapi/images/dynwindow close1.gif
2001.10.23 11:39 B W:\AEI\Produccio\ictol\source\lib\dynapi\images\dynwindow\corner-bl.gif --> ictonline.ictnet.es /lib/dynapi/images/dynwindow corner-bl.gif
2001.10.23 11:39 B W:\AEI\Produccio\ictol\source\lib\dynapi\images\dynwindow\corner-br.gif --> ictonline.ictnet.es /lib/dynapi/images/dynwindow corner-br.gif
2001.10.23 11:39 B W:\AEI\Produccio\ictol\source\lib\dynapi\images\dynwindow\corner-tl.gif --> ictonline.ictnet.es /lib/dynapi/images/dynwindow corner-tl.gif
2001.10.23 11:39 B W:\AEI\Produccio\ictol\source\lib\dynapi\images\dynwindow\corner-tr.gif --> ictonline.ictnet.es /lib/dynapi/images/dynwindow corner-tr.gif
2001.10.23 11:39 B W:\AEI\Produccio\ictol\source\lib\dynapi\images\dynwindow\icon.gif --> ictonline.ictnet.es /lib/dynapi/images/dynwindow icon.gif
2001.10.23 11:39 B W:\AEI\Produccio\ictol\source\lib\dynapi\images\dynwindow\max0.gif --> ictonline.ictnet.es /lib/dynapi/images/dynwindow max0.gif
2001.10.23 11:39 B W:\AEI\Produccio\ictol\source\lib\dynapi\images\dynwindow\max1.gif --> ictonline.ictnet.es /lib/dynapi/images/dynwindow max1.gif
2001.10.23 11:39 B W:\AEI\Produccio\ictol\source\lib\dynapi\images\dynwindow\min0.gif --> ictonline.ictnet.es /lib/dynapi/images/dynwindow min0.gif
2001.10.23 11:39 B W:\AEI\Produccio\ictol\source\lib\dynapi\images\dynwindow\min1.gif --> ictonline.ictnet.es /lib/dynapi/images/dynwindow min1.gif
2001.10.23 11:39 B W:\AEI\Produccio\ictol\source\lib\dynapi\images\dynwindow\title-bg.gif --> ictonline.ictnet.es /lib/dynapi/images/dynwindow title-bg.gif
2001.10.23 11:39 B W:\AEI\Produccio\ictol\source\lib\dynapi\images\dynwindow\WS_FTP.LOG --> ictonline.ictnet.es /lib/dynapi/images/dynwindow WS_FTP.LOG
