2001.09.06 13:40 B W:\AEI\Produccio\ictol\source\lib\dynapi\dynapi.js --> mis.ictnet.es /E:/MIS/ictonline/source/lib/dynapi dynapi.js
2001.09.26 15:49 B W:\AEI\Produccio\ictol\source\lib\dynapi\dynapi.js --> ictonline.ictnet.es /lib/dynapi dynapi.js
2001.09.26 15:49 B W:\AEI\Produccio\ictol\source\lib\dynapi\WS_FTP.LOG --> ictonline.ictnet.es /lib/dynapi WS_FTP.LOG
2001.10.23 11:40 B W:\AEI\Produccio\ictol\source\lib\dynapi\dynapi.js --> ictonline.ictnet.es /lib/dynapi dynapi.js
2001.10.23 11:40 B W:\AEI\Produccio\ictol\source\lib\dynapi\WS_FTP.LOG --> ictonline.ictnet.es /lib/dynapi WS_FTP.LOG
