0 0 0 DCL  1 RM(1) ,
  2 FHISTOR(1) CHAR(3) ENTSINSIG,
  2 FFECHUA(1) CHAR(2) FECREL,
  2 FAUTOR(1) CHAR(2) TEXJUE40,
  2 FTIPO(1) CHAR(1) TEXSINCOM,
  2 FNEXT(1) CHAR(3) ENTSINSIG,
  2 FSEXO(1) CHAR(1) TABLA TXSEXO,
  2 FECIVIL(1) CHAR(1) TABLA TXESCI,
  2 FRELIGI(1) CHAR(1) TABLA TXRELI,
  2 FFECHNA(1) CHAR(2) FECREL,
  2 FNOMBRE(1) CHAR(30) TEXJUE32,
  2 FPADNI(1) CHAR(6) TEXJUE40,
  2 FPALUNA(1) CHAR(15) TEXJUE32,
  2 FPADOMI(1) CHAR(32) TEXJUE40,
  2 FPACITY(1) CHAR(16) TEXJUE40,
  2 FPAPROV(1) CHAR(1) TABLA TXPROV,
  2 FPAPAIS(1) CHAR(1) TABLA TXPAIS,
  2 FPATLFO(1) CHAR(5) ENTSINSIG,
  2 FPROFES(1) CHAR(15) TEXJUE32,
  2 FPUESTO(1) CHAR(15) TEXJUE32,
  2 FEMPRES(1) CHAR(15) TEXJUE32,
  2 FDIRECC(1) CHAR(16) TEXJUE40,
  2 FFECHIN(1) CHAR(2) FECREL,
  2 FRELUDN(1) CHAR(15) TEXJUE32,
  2 FNSOE(1) BIN FIXED(31) BINARIO,
  2 FTITULA(1) CHAR(30) TEXJUE32,
  2 FRESFAM(1) CHAR(30) TEXJUE32,
  2 FREDOMI(1) CHAR(32) TEXJUE40,
  2 FRECITY(1) CHAR(16) TEXJUE40,
  2 FREPROV(1) CHAR(1) TABLA TXPROV,
  2 FREPAIS(1) CHAR(1) TABLA TXPAIS,
  2 FRETLFO(1) CHAR(5) ENTSINSIG,
  2 FPARENT(1) CHAR(10) TEXJUE32,
  2 FTECOP(1) CHAR(1) TABLA TCTECO,
  2 FFCHTE(1) CHAR(2) FECREL,
  2 TDA(2)  ,
   3 FFECHMO(1) CHAR(2) FECREL,
   3 FDOCAUX(1) CHAR(10) TEXJUE32,
   3 FDEPTO(1) CHAR(2) TABLA TCSERV,
  2 FCLVF(1) CHAR(3) ENTSINSIG,
  2 FNCASUL(1) CHAR(3) ENTCONSIG,
  2 FFECHUI(1) CHAR(4) FECABS,
  2 FNSER(1) CHAR(2) TABLA TCSERV,
  2 FNDOCRE(1) CHAR(2) TABLA TCDOCT,
  2 FTECO(1) CHAR(1) TABLA TCTECO,
  2 FENTI(1) CHAR(2) TABLA TCENTI,
  2 FTASI(1) CHAR(1) TABLA TCTASI,
  2 FTPAC(1) CHAR(1) TABLA TCTPAC,
  2 FRBAUCA(1) CHAR(4) ENTSINSIG,
  2 FCENRES(1) CHAR(1) TABLA TCENCO,
  2 FTIPTIT(1) CHAR(1) TABLA TCTITU,
  2 FPATRAT(1) CHAR(1) TEXSINCOM,
  2 FSERONC(1) CHAR(2) TABLA TCSERV,
  2 FNRECO(1) BIN FIXED(31) BINARIO,
  2 FNSOEPR(1) CHAR(1) ENTSINSIG,
  2 FNSOEDC(1) CHAR(1) ENTSINSIG,
  2 FLAGS(1)  ,
   3 ECB(2) BIT(1) ENTSINSIG,
   3 PAD1(1) BIT(6) ENTSINSIG,
  2 FPAD2(1) CHAR(45) TEXSINCOM,
  2 FPACIP(1) BIN FIXED(15) BINARIO,
  2 FRECIP(1) BIN FIXED(15) BINARIO,
  2 FPADOIN1(1) BIN FIXED(7) BINARIO,
  2 FPADOIN2(1) BIN FIXED(7) BINARIO,
  2 FREDOIN1(1) BIN FIXED(7) BINARIO,
  2 FREDOIN2(1) BIN FIXED(7) BINARIO,
  2 FPAREN(1) CHAR(1) TABLA TXPARE,
  2 FHORAUA(1) CHAR(2) ENTSINSIG;

0 0 0 DCL  1 RC(1) ,
  2 CHISTOR(1) CHAR(3) ENTSINSIG,
  2 CNCASAC(1) CHAR(3) ENTCONSIG,
  2 CFCHUAB(1) CHAR(4) FECABS,
  2 CHORUAB(1) CHAR(2) ENTSINSIG,
  2 COPRUAB(1) CHAR(2) TEXJUE40,
  2 CTADM(1) CHAR(1) TABLA TCTADM,
  2 COFICAD(1) CHAR(2) TEXJUE40,
  2 CFECHIN(1) CHAR(4) FECABS,
  2 CHORAIN(1) CHAR(2) ENTSINSIG,
  2 CTPAC(1) CHAR(1) TABLA TCTPAC,
  2 CTASI(1) CHAR(1) TABLA TCTASI,
  2 CNCAM(1) CHAR(2) ENTSINSIG,
  2 CRMPARE(1) CHAR(1) TABLA TXPARE,
  2 CNSER(1) CHAR(2)  TABLA TCSERV,
  2 CNDOCRE(1) CHAR(2) TABLA TCDOCT,
  2 CDIAGIN(1) CHAR(32) TEXJUE40,
  2 CENFACC(1) CHAR(1) TABLA TCENAC,
  2 CURGENC(1) CHAR(1) TABLA TXAFNE,
  2 CPROC(1) CHAR(1) TABLA TCPROC,
  2 CMOTI(1) CHAR(1) TABLA TCMOIN,
  2 CINFE(1) CHAR(1) TABLA TXAFNE,
  2 CTECO(1) CHAR(1) TEXSINCOM,
  2 CENTI(1) CHAR(2) TEXSINCOM,
  2 CTVOL(1) CHAR(1) TABLA TCVOLS,
  2 CFECHVO(1) CHAR(4) FECABS,
  2 CDOCERE(1) CHAR(32) TEXJUE40,
  2 CCABESP(1) CHAR(1) TABLA TCFAES,
  2 CDODOMI(1) CHAR(32) TEXJUE40,
  2 CDOCITY(1) CHAR(16) TEXJUE40,
  2 CDOPROV(1) CHAR(1) TABLA TXPROV,
  2 CDOPAIS(1) CHAR(1) TABLA TXPAIS,
  2 CDOTLFO(1) CHAR(5) ENTSINSIG,
  2 CDOINFO(1) CHAR(1) TABLA TXAFNE,
  2 CRESMON(1) CHAR(32) TEXJUE40,
  2 CPERSOC(1) CHAR(1) TEXSINCOM,
  2 CRMDOMI(1) CHAR(32) TEXJUE40,
  2 CRMCITY(1) CHAR(16) TEXJUE40,
  2 CRMPROV(1) CHAR(1) TABLA TXPROV,
  2 CRMPAIS(1) CHAR(1) TABLA TXPAIS,
  2 CRMTLFO(1) CHAR(5) ENTSINSIG,
  2 CRMPROF(1) CHAR(15) TEXJUE32,
  2 CINSP(1) CHAR(1) TABLA TCINSP,
  2 CRMPUES(1) CHAR(15) TEXJUE32,
  2 CRMTRAT(1) CHAR(1) TABLA TOTRAT,
  2 CRMEMPR(1) CHAR(15) TEXJUE32,
  2 PAD3(1) CHAR(1) TEXSINCOM,
  2 CRMEMDI(1) CHAR(16) TEXJUE40,
  2 CNUMENT(1)  CHAR(3) ENTSINSIG,
  2 CCLASAL(1)  CHAR(1) ENTSINSIG,
  2 CCONTFS(1) BIN FIXED(15) DECIMAL,
  2 CFINALS(1) CHAR(1) TEXSINCOM,
  2 CCONTFP(1) BIN FIXED(15) DECIMAL,
  2 CFINALP(1) CHAR(1) TEXSINCOM,
  2 CTCR(10)  ,
   3 CFECHCR(1) CHAR(4) ENTSINSIG,
   3 CHORACR(1) CHAR(2) ENTSINSIG,
   3 CCAMACR(1) CHAR(2) ENTSINSIG,
   3 PAD5(1) CHAR(1) TEXSINCOM,
   3 CSERVCR(1) CHAR(2) TABLA TCSERV,
   3 CDOCRCR(1) CHAR(2) TABLA TCDOCT,
   3 CTECOCR(1) CHAR(1) TABLA TCTECO,
   3 CENTICR(1) CHAR(2) TABLA TCENTI,
   3 CTASICR(1) CHAR(1) TABLA TCTASI,
  2 CFECHAL(1) CHAR(4) ENTSINSIG,
  2 CHORALT(1) CHAR(2) ENTSINSIG,
  2 CMOTIAL(1) CHAR(1) TABLA TCMOAL,
  2 CDIAGA1(1) CHAR(24) TEXJUE40,
  2 CDIAGA2(1) CHAR(22) TEXJUE40,
  2 CTRAT(1) CHAR(32) TEXJUE40,
  2 CCENVPL(1) CHAR(1) TABLA TCCEPL,
  2 CFECHPL(1) CHAR(4) ENTSINSIG,
  2 CRBAANT(1) CHAR(4) ENTSINSIG,
  2 CFCHUAC(1) CHAR(4) ENTSINSIG,
  2 CHORUAC(1) CHAR(2) ENTSINSIG,
  2 COPRUAC(1) CHAR(2) TEXJUE40,
  2 COFICCA(1) CHAR(2) TEXJUE40,
  2 CFCHUAA(1) CHAR(4) ENTSINSIG,
  2 CHORUAA(1) CHAR(2) ENTSINSIG,
  2 COPRUAA(1) CHAR(2) TEXJUE40,
  2 COFICAL(1) CHAR(2) TEXJUE40,
  2 CFCHUAP(1) CHAR(4) ENTSINSIG,
  2 CHORUAP(1) CHAR(2) ENTSINSIG,
  2 COPRUAP(1) CHAR(2) TEXJUE40,
  2 COFICPL(1) CHAR(2) TEXJUE40,
  2 CRBAMOV(1) CHAR(4) ENTSINSIG,
  2 CFCHUAF(1) CHAR(4) ENTSINSIG,
  2 CHORUAF(1) CHAR(2) ENTSINSIG,
  2 COPRUAF(1) CHAR(2) TEXJUE40,
  2 CNUMCAM(1) BIN FIXED(15) BINARIO,
  2 CFECHSV(1) CHAR(4) ENTSINSIG,
  2 CRMCIF(1) CHAR(6) TEXJUE40,
  2 COBSERV(1) CHAR(20) TEXJUE40,
  2 PAD6(1) CHAR(3) TEXSINCOM,
  2 CDODOIN1(1) BIN FIXED(7) BINARIO,
  2 CDODOIN2(1) BIN FIXED(7) BINARIO,
  2 CRMDOIN1(1) BIN FIXED(7) BINARIO,
  2 CRMDOIN2(1) BIN FIXED(7) BINARIO,
  2 CDOCIP(1) BIN FIXED(15) BINARIO,
  2 CRMCIP(1) BIN FIXED(15) BINARIO,
  2 CPASHIS(1) CHAR(1) TEXSINCOM;

0 0 0 DCL  1 REGFACT(1) ,
  2 FFACT(1) BIN FIXED(31) BINARIO,
  2 FRECO(1) BIN FIXED(31) BINARIO,
  2 FHIST(1) BIN FIXED(31) BINARIO,
  2 FCASO(1) BIN FIXED(15) BINARIO,
  2 FTASI(1) CHAR(1) ,
  2 FTECO(1) CHAR(1) ,
  2 FTIPO(1) BIN FIXED(15) ,
  2 FFECH(1) BIN FIXED(31) ,
  2 FOPER(1) CHAR(3) ,
  2 FFECHR(1) BIN FIXED(31) ,
  2 FHORAR(1) BIN FIXED(15) ,
  2 FCCARE(1) CHAR(1) ,
  2 FOBSER(1) CHAR(56) ,
  2 FIMPOR(1) BIN FIXED(31) ,
  2 FIVA(1) BIN FIXED(31) ,
  2 FCPROT(1) BIN FIXED(31) ,
  2 FCMEDE(1) BIN FIXED(31) ,
  2 FCRADI(1) BIN FIXED(31) ,
  2 FCNUTR(1) BIN FIXED(31) ,
  2 FCDIAL(1) BIN FIXED(31) ,
  2 FCTAC(1) BIN FIXED(31) ,
  2 FFINPAR(1) CHAR(1) ,
  2 FENTIDAD(1) CHAR(2) ,
  2 FASFA(1) BIN FIXED(31) ,
  2 FIARECO(1)  ,
   3 FIRECO(1) BIN FIXED(31) ,
   3 FICOMP(1) CHAR(1) ,
   3 FIFACT(1) BIN FIXED(31) ,
  2 FOPEU(1) CHAR(3) ,
  2 FFECHU(1) BIN FIXED(31) ,
  2 FHORAU(1) BIN FIXED(15) ,
  2 FCFORF(1) CHAR(6) ,
  2 FTFORF(1) CHAR(1) ,
  2 FIMPPC(1) BIN FIXED(31) ,
  2 FCTRAE(1) BIN FIXED(31) ,
  2 FCHEMO(1) BIN FIXED(31) ,
  2 FCVASC(1) BIN FIXED(31) ,
  2 FCREMA(1) BIN FIXED(31) ,
  2 FCONCO(1) BIN FIXED(31) ,
  2 FTECOTF(1) CHAR(1) ,
  2 FENTITF(1) CHAR(2) ,
  2 FRESER(1) CHAR(13) ,
  2 FTABC(10)  ,
   3 FSERVC(1) CHAR(2) ,
   3 FIMPSC(1) BIN FIXED(31) ,
  2 FTABS(100)  ,
   3 FSERV(1) CHAR(2) ,
   3 FIMPS(1) BIN FIXED(31) ;

0 0 0 DCL  1 RFACT(1) ,
  2 CLAVEF(1) CHAR(2) ,
  2 NFACTF(1) DEC FIXED(9) ,
  2 NHISTF(1) CHAR(6) ,
  2 NCASOF(1) CHAR(4) ,
  2 NOMBRF(1) CHAR(25) ,
  2 DIRECF(1) CHAR(15) ,
  2 POBLAF(1) CHAR(15) ,
  2 PROVIF(1) CHAR(2) ,
  2 SEXOF(1) CHAR(1) ,
  2 TASISF(1) CHAR(1) ,
  2 TECONF(1) CHAR(1) ,
  2 ENTIDF(1) CHAR(2) ,
  2 RESECF(1) CHAR(23) ,
  2 NETOIF(1) DEC FIXED(7) ,
  2 ITEIF(1) DEC FIXED(7) ,
  2 NETOAF(1) DEC FIXED(7) ,
  2 ITEAF(1) DEC FIXED(7) ,
  2 FECHAF(1) CHAR(5) ,
  2 TABSER(90)  ,
   3 TSERVF(1) CHAR(3) ,
   3 TIMPSF(1) DEC FIXED(7) ,
  2 FINTAF(1) CHAR(1) ,
  2 MESPRF(1) CHAR(2) ,
  2 ANOPRF(1) CHAR(1) ,
  2 BITEF(1) DEC FIXED(7) ,
  2 TFACTF(1) CHAR(2) ,
  2 PARFINF(1) CHAR(1) ,
  2 RESERF(1) CHAR(6) ;

0 0 0 DCL  1 RI(1) ,
  2 ICLAV(1) CHAR(2) ,
  2 ICLAVE(1) CHAR(1) ,
  2 IHISTOR(1) CHAR(6) ,
  2 ICASO(1) CHAR(5) ,
  2 IFACTUR(1) CHAR(6) ,
  2 IAPENOM(1) CHAR(48) ,
  2 INSOE(1) CHAR(10) ,
  2 IROTURA(1) CHAR(1) ,
  2 ITA(1) CHAR(1) ,
  2 IENTID(1) CHAR(2) ,
  2 IDESENTD(1) CHAR(20) ,
  2 ISERV(1) CHAR(3) ,
  2 IDESSERV(1) CHAR(18) ,
  2 IFECHNAC(1) CHAR(10) ,
  2 IFECHING(1) CHAR(8) ,
  2 IHORAING(1) CHAR(5) ,
  2 IFECHA(1) CHAR(8) ,
  2 IHORA(1) CHAR(5) ,
  2 IIMPORT(1) DEC FIXED(9) ,
  2 ICANT(1) DEC FIXED(9) ,
  2 IGRUPSUP(1) CHAR(2) ,
  2 IDESGRSP(1) CHAR(40) ,
  2 IFECHALT(1) CHAR(8) ,
  2 IHORAALT(1) CHAR(5) ,
  2 IINSPEC(1) CHAR(4) ,
  2 ICODINT(1) CHAR(6) ,
  2 IFECHINT(1) CHAR(8) ,
  2 INUMDOC(1) CHAR(3) ,
  2 INUMREG(1) BIN FIXED(15) ,
  2 IBLANCO(1) CHAR(1) ,
  2 IDIAG(1) CHAR(24) ,
  2 ITPAC(1) CHAR(3) ,
  2 ICAMA(1) CHAR(5) ,
  2 IALTA(1) CHAR(1) ,
  2 ICODFAR(1) CHAR(6) ,
  2 IGRUANA(1) CHAR(5) ,
  2 ICODPRU(1) CHAR(6) ,
  2 IPROTPAG(1) CHAR(1) ,
  2 ICLAVCON(1) CHAR(1) ,
  2 IRMESANT(1) CHAR(1) ,
  2 IRMARIN2(1) CHAR(1) ,
  2 ICITFACT(1) CHAR(1) ,
  2 INREFER(1) CHAR(3) ,
  2 IREPFACT(1) CHAR(1) ,
  2 IRESERVA(1) CHAR(8) ;

0 0 0 DCL  1 R1MOV(1) ,
  2 CLAVE1(1) CHAR(1) TEXSINCOM,
  2 RBAM1(1) CHAR(4) TEXSINCOM,
  2 MARCA1(1) CHAR(1) TEXSINCOM,
  2 AMANO1(1) CHAR(1) TEXSINCOM,
  2 OULAC1(1) CHAR(2) ,
  2 FULAC1(1) CHAR(4) ,
  2 HULAC1(1) CHAR(2) ,
  2 FREGS1(1) CHAR(4) ,
  2 HREGS1(1) CHAR(2) ,
  2 NDOCM1(1) CHAR(3) ,
  2 FLAG1(1) CHAR(1) ,
  2 NHIST1(1) CHAR(3) ENTSINSIG,
  2 NCASO1(1) DEC FIXED(5) DECIMAL,
  2 NFACT1(1) CHAR(3) ENTSINSIGBIN,
  2 FSOLI1(1) CHAR(4) ,
  2 HSOLI1(1) CHAR(2) ,
  2 DOCTO1(1) CHAR(2) ,
  2 SSOLI1(1) CHAR(2) ,
  2 MEDIC1(1) CHAR(3) ENTSINSIG,
  2 CANTI1(1) DEC FIXED(5) DECIMAL,
  2 IMPOR1(1) DEC FIXED(7) DECIMAL,
  2 CLAVG1(1) CHAR(1) ENTSINSIG,
  2 NOMED1(1) BIN FIXED(15) BINARIO,
  2 AREAQ1(1) CHAR(1) ,
  2 IMPSS1(1) BIN FIXED(31) BINARIO,
  2 RESER1(1) CHAR(16) ;

0 0 0 DCL  1 R2MOV(1) ,
  2 CLAVE2(1) CHAR(1) TEXSINCOM,
  2 RBAM2(1) CHAR(4) TEXSINCOM,
  2 MARCA2(1) CHAR(1) TEXSINCOM,
  2 AMANO2(1) CHAR(1) TEXSINCOM,
  2 OULAC2(1) CHAR(2) ,
  2 FULAC2(1) CHAR(4) ,
  2 HULAC2(1) CHAR(2) ,
  2 FREGS2(1) CHAR(4) ,
  2 HREGS2(1) CHAR(2) ,
  2 NDOCM2(1) CHAR(3) ,
  2 FLAG2(1) CHAR(1) ,
  2 NHIST2(1) CHAR(3) ENTSINSIG,
  2 NCASO2(1) DEC FIXED(5) DECIMAL,
  2 NFACT2(1) CHAR(3) ENTSINSIGBIN,
  2 FINIC2(1) CHAR(4) ,
  2 HINIC2(1) CHAR(2) ,
  2 NQUIR2(1) CHAR(1) ,
  2 DURAC2(1) CHAR(2) ,
  2 INTER2(1) CHAR(3) ,
  2 DINTR2(1) CHAR(20) ,
  2 IMPDQ2(1) DEC FIXED(7) DECIMAL,
  2 SERVC2(1) CHAR(2) ,
  2 CIRUJ2(1) CHAR(2) ,
  2 IMPCI2(1) DEC FIXED(7) DECIMAL,
  2 SANES2(1) CHAR(2) ,
  2 ANEST2(1) CHAR(2) ,
  2 IMPAN2(1) DEC FIXED(7) DECIMAL,
  2 SERCO2(1) CHAR(2) ,
  2 CIRCO2(1) CHAR(2) ,
  2 IMPCO2(1) DEC FIXED(7) DECIMAL,
  2 AMANA2(1) CHAR(1) TEXSINCOM,
  2 RESER2(1) CHAR(15) ;

0 0 0 DCL  1 R3MOV(1) ,
  2 CLAVE3(1) CHAR(1) TEXSINCOM,
  2 RBAM3(1) CHAR(4) TEXSINCOM,
  2 MARCA3(1) CHAR(1) TEXSINCOM,
  2 AMANO3(1) CHAR(1) TEXSINCOM,
  2 OULAC3(1) CHAR(2) ,
  2 FULAC3(1) CHAR(4) ,
  2 HULAC3(1) CHAR(2) ,
  2 FREGS3(1) CHAR(4) ,
  2 HREGS3(1) CHAR(2) ,
  2 NDOCM3(1) CHAR(3) ,
  2 FLAG3(1) CHAR(1) ,
  2 NHIST3(1) CHAR(3) ENTSINSIG,
  2 NCASO3(1) DEC FIXED(5) DECIMAL,
  2 NFACT3(1) CHAR(3) ENTSINSIGBIN,
  2 FSOLI3(1) CHAR(4) ,
  2 HSOLI3(1) CHAR(2) ,
  2 DOCTO3(1) CHAR(2) ,
  2 SSOLI3(1) CHAR(2) ,
  2 MEDIC3(1) CHAR(3) ENTSINSIG,
  2 CANTI3(1) DEC FIXED(5) DECIMAL,
  2 IMPOR3(1) DEC FIXED(7) DECIMAL,
  2 INTER3(1) CHAR(3) ,
  2 DEMED3(1) CHAR(24) ,
  2 IMPSS3(1) BIN FIXED(31) BINARIO,
  2 AREAQ3(1) CHAR(1) ,
  2 RESER3(1) CHAR(7) ;

0 0 0 DCL  1 R5MOV(1) ,
  2 CLAVE5(1) CHAR(1) TEXSINCOM,
  2 RBAM5(1) CHAR(4) TEXSINCOM,
  2 MARCA5(1) CHAR(1) TEXSINCOM,
  2 AMANO5(1) CHAR(1) TEXSINCOM,
  2 OULAC5(1) CHAR(2) ,
  2 FULAC5(1) CHAR(4) ,
  2 HULAC5(1) CHAR(2) ,
  2 FREGS5(1) CHAR(4) ,
  2 HREGS5(1) CHAR(2) ,
  2 NDOCM5(1) CHAR(3) ,
  2 FLAG5(1) CHAR(1) ,
  2 NHIST5(1) CHAR(3) ENTSINSIG,
  2 NCASO5(1) DEC FIXED(5) DECIMAL,
  2 NFACT5(1) CHAR(3) ENTSINSIGBIN,
  2 FINES5(1) CHAR(4) ,
  2 HINES5(1) CHAR(2) ,
  2 CAMA5(1) CHAR(2) ENTSINSIG,
  2 SERVI5(1) CHAR(2) ,
  2 CANTI5(1) DEC FIXED(5) DECIMAL,
  2 IMPOR5(1) DEC FIXED(7) DECIMAL,
  2 FFINE5(1) CHAR(4) ,
  2 HFINE5(1) CHAR(2) ,
  2 FINGR5(1) CHAR(4) FECREL,
  2 HINGR5(1) CHAR(2) ENTSINSIG,
  2 RESER5(1) CHAR(11) ;

0 0 0 DCL  1 R6MOV(1) ,
  2 CLAVE6(1) CHAR(1) TEXSINCOM,
  2 RBAM6(1) CHAR(4) TEXSINCOM,
  2 MARCA6(1) CHAR(1) TEXSINCOM,
  2 AMANO6(1) CHAR(1) TEXSINCOM,
  2 OULAC6(1) CHAR(2) ,
  2 FULAC6(1) CHAR(4) ,
  2 HULAC6(1) CHAR(2) ,
  2 FREGS6(1) CHAR(4) ,
  2 HREGS6(1) CHAR(2) ,
  2 NDOCM6(1) CHAR(3) ,
  2 FLAG6(1) CHAR(1) ,
  2 NHIST6(1) CHAR(3) ENTSINSIG,
  2 NCASO6(1) DEC FIXED(5) DECIMAL,
  2 NFACT6(1) CHAR(3) ENTSINSIGBIN,
  2 FINIC6(1) CHAR(4) ,
  2 HINIC6(1) CHAR(2) ,
  2 TAB6(4)  ,
   3 SERV6(1) CHAR(2) ENTSINSIG,
   3 IMPOR6(1) DEC FIXED(7) DECIMAL,
  2 RESER6(1) CHAR(7) ;

0 0 0 DCL  1 R7MOV(1) ,
  2 CLAVE7(1) CHAR(1) ,
  2 RBAM7(1) CHAR(4) ,
  2 MARCA7(1) CHAR(1) ,
  2 AMANO7(1) CHAR(1) ,
  2 OULAC7(1) CHAR(2) ,
  2 FULAC7(1) CHAR(4) ,
  2 HULAC7(1) CHAR(2) ,
  2 FREGS7(1) CHAR(4) ,
  2 HREGS7(1) CHAR(2) ,
  2 NDOCM7(1) CHAR(3) ,
  2 FLAG7(1) CHAR(1) ,
  2 NHIST7(1) CHAR(3) ,
  2 NCASO7(1) DEC FIXED(5) ,
  2 NFACT7(1) CHAR(3) ,
  2 FINIC7(1) CHAR(4) ,
  2 HINIC7(1) CHAR(2) ,
  2 SERVS7(1) CHAR(2) ,
  2 SERVR7(1) CHAR(2) ,
  2 CANTI7(1) DEC FIXED(3) ,
  2 IMPOR7(1) DEC FIXED(7) ,
  2 RESER7(1) CHAR(8) ;

0 0 0 DCL  1 R8MOV(1) ,
  2 CLAVE8(1) CHAR(1) TEXSINCOM,
  2 RBAM8(1) CHAR(4) TEXSINCOM,
  2 MARCA8(1) CHAR(1) TEXSINCOM,
  2 AMANO8(1) CHAR(1) TEXSINCOM,
  2 OULAC8(1) CHAR(2) ,
  2 FULAC8(1) CHAR(4) ,
  2 HULAC8(1) CHAR(2) ,
  2 FREGS8(1) CHAR(4) ,
  2 HREGS8(1) CHAR(2) ,
  2 RESRV8(1) CHAR(3) ,
  2 FLAG8(1) CHAR(1) ,
  2 NHIST8(1) CHAR(3) ENTSINSIG,
  2 NCASO8(1) DEC FIXED(5) DECIMAL,
  2 NFACT8(1) CHAR(3) ENTSINSIGBIN,
  2 FSOLI8(1) CHAR(4) ,
  2 HSOLI8(1) CHAR(2) ,
  2 DOCTO8(1) CHAR(2) ,
  2 SSOLI8(1) CHAR(2) ,
  2 FREAL8(1) CHAR(4) ,
  2 HREAL8(1) CHAR(2) ,
  2 TRABA8(1) CHAR(3) ,
  2 DIGCT8(1) CHAR(1) ,
  2 CANTI8(1) DEC FIXED(5) DECIMAL,
  2 IMPOR8(1) DEC FIXED(7) DECIMAL,
  2 GRSUP8(1) CHAR(1) ,
  2 URGEN8(1) CHAR(1) ,
  2 PUEST8(1) CHAR(1) ,
  2 HINIC8(1) CHAR(2) ,
  2 NDOCM8(1) CHAR(4) ,
  2 HFINA8(1) CHAR(2) ,
  2 IMPSS8(1) BIN FIXED(31) BINARIO,
  2 CLAVG8(1) CHAR(1) ,
  2 ODOCT8(1) CHAR(2) ,
  2 RESER8(1) CHAR(4) ;

0 0 0 DCL  1 R10MC(1) ,
  2 CCLAVE10(1) CHAR(2) ,
  2 CFACPE10(1) CHAR(1) ,
  2 CNHIST10(1) CHAR(6) ,
  2 CNCASO10(1) CHAR(5) ,
  2 CNFACT10(1) CHAR(6) ,
  2 CFFACT10(1) CHAR(8) ,
  2 CFMOVI10(1) CHAR(8) ,
  2 CNCAMA10(1) CHAR(5) ,
  2 CSPLAN10(1) CHAR(3) ,
  2 CFINGR10(1) CHAR(8) ,
  2 CFALTA10(1) CHAR(8) ,
  2 CTPACI10(1) CHAR(3) ,
  2 CCOPRO10(1) CHAR(2) ,
  2 CTASI10(1) CHAR(1) ,
  2 CTECO10(1) CHAR(1) ,
  2 CENTD10(1) CHAR(2) ,
  2 CTECCO10(1) CHAR(1) ,
  2 CCANTI10(1) BIN FIXED(15) ,
  2 CIMPOR10(1) BIN FIXED(31) ,
  2 CSFARM10(1) CHAR(3) ,
  2 CMEDIC10(1) CHAR(6) ,
  2 CSRECE10(1) CHAR(3) ,
  2 CDOCTO10(1) CHAR(2) ,
  2 CBLANC10(1) CHAR(19) ,
  2 CINTCI10(1) CHAR(1) ,
  2 CFLAG10(1) CHAR(1) ,
  2 CRESER10(1) CHAR(4) ;

0 0 0 DCL  1 R20MC(1) ,
  2 CCLAVE20(1) CHAR(2) ,
  2 CFACPE20(1) CHAR(1) ,
  2 CNHIST20(1) CHAR(6) ,
  2 CNCASO20(1) CHAR(5) ,
  2 CNFACT20(1) CHAR(6) ,
  2 CFFACT20(1) CHAR(8) ,
  2 CFMOVI20(1) CHAR(8) ,
  2 CNCAMA20(1) CHAR(5) ,
  2 CSPLAN20(1) CHAR(3) ,
  2 CFINGR20(1) CHAR(8) ,
  2 CFALTA20(1) CHAR(8) ,
  2 CTPACI20(1) CHAR(3) ,
  2 CCOPRO20(1) CHAR(2) ,
  2 CTASI20(1) CHAR(1) ,
  2 CTECO20(1) CHAR(1) ,
  2 CENTD20(1) CHAR(2) ,
  2 CTECCO20(1) CHAR(1) ,
  2 CDCIRU20(1) CHAR(2) ,
  2 CIMPCI20(1) BIN FIXED(31) ,
  2 CSCIRU20(1) CHAR(3) ,
  2 CINTER20(1) CHAR(6) ,
  2 CBLAN1(1) CHAR(3) ,
  2 CIMPDQ20(1) BIN FIXED(31) ,
  2 CQUIRO20(1) CHAR(2) ,
  2 CSANES20(1) CHAR(3) ,
  2 CBLAN2(1) CHAR(1) ,
  2 CDANES20(1) CHAR(2) ,
  2 CIMPAN20(1) BIN FIXED(31) ,
  2 CSCOLA20(1) CHAR(3) ,
  2 CBLAN3(1) CHAR(1) ,
  2 CIMPCO20(1) BIN FIXED(31) ,
  2 CDCOLA20(1) CHAR(2) ,
  2 CDURAC20(1) CHAR(4) ,
  2 CDINTR20(1) CHAR(30) ,
  2 CSQUIR20(1) CHAR(3) ,
  2 CSRESP20(1) CHAR(3) ,
  2 CINTCI20(1) CHAR(1) ,
  2 CFLAG20(1) CHAR(1) ,
  2 CRESER20(1) CHAR(6) ,
  2 CTARIF20(1) BIN FIXED(31) ;

0 0 0 DCL  1 R30MC(1) ,
  2 CCLAVE30(1) CHAR(2) ,
  2 CFACPE30(1) CHAR(1) ,
  2 CNHIST30(1) CHAR(6) ,
  2 CNCASO30(1) CHAR(5) ,
  2 CNFACT30(1) CHAR(6) ,
  2 CFFACT30(1) CHAR(8) ,
  2 CFMOVI30(1) CHAR(8) ,
  2 CNCAMA30(1) CHAR(5) ,
  2 CSPLAN30(1) CHAR(3) ,
  2 CFINGR30(1) CHAR(8) ,
  2 CFALTA30(1) CHAR(8) ,
  2 CTPACI30(1) CHAR(3) ,
  2 CCOPRO30(1) CHAR(2) ,
  2 CTASI30(1) CHAR(1) ,
  2 CTECO30(1) CHAR(1) ,
  2 CENTD30(1) CHAR(2) ,
  2 CTECCO30(1) CHAR(1) ,
  2 CCANTI30(1) BIN FIXED(15) ,
  2 CIMPOR30(1) BIN FIXED(31) ,
  2 CSFARM30(1) CHAR(3) ,
  2 CMEDIC30(1) CHAR(6) ,
  2 CSCIRU30(1) CHAR(3) ,
  2 CDCIRU30(1) CHAR(2) ,
  2 CINTER30(1) CHAR(6) ,
  2 CBLANC30(1) CHAR(13) ,
  2 CINTCI30(1) CHAR(1) ,
  2 CFLAG30(1) CHAR(1) ,
  2 CRESER30(1) CHAR(9) ;

0 0 0 DCL  1 R50MC(1) ,
  2 CCLAVE50(1) CHAR(2) ,
  2 CFACPE50(1) CHAR(1) ,
  2 CNHIST50(1) CHAR(6) ,
  2 CNCASO50(1) CHAR(5) ,
  2 CNFACT50(1) CHAR(6) ,
  2 CFFACT50(1) CHAR(8) ,
  2 CFINES50(1) CHAR(8) ,
  2 CNCAMA50(1) CHAR(5) ,
  2 CSPLAN50(1) CHAR(3) ,
  2 CFINGR50(1) CHAR(8) ,
  2 CFALTA50(1) CHAR(8) ,
  2 CTPACI50(1) CHAR(3) ,
  2 CCOPRO50(1) CHAR(2) ,
  2 CTASI50(1) CHAR(1) ,
  2 CTECO50(1) CHAR(1) ,
  2 CENTD50(1) CHAR(2) ,
  2 CTECCO50(1) CHAR(1) ,
  2 CDIASE50(1) BIN FIXED(15) ,
  2 CIMPOR50(1) BIN FIXED(31) ,
  2 CSPLA250(1) CHAR(3) ,
  2 CHINES50(1) CHAR(4) ,
  2 CFFIES50(1) CHAR(8) ,
  2 CHFIES50(1) CHAR(4) ,
  2 CSRESP50(1) CHAR(3) ,
  2 CTCAMA50(1) CHAR(2) ,
  2 CBLANC50(1) CHAR(9) ,
  2 CINTCI50(1) CHAR(1) ,
  2 CFLAG50(1) CHAR(1) ,
  2 CRESER50(1) CHAR(5) ,
  2 CTARIF50(1) BIN FIXED(31) ;

0 0 0 DCL  1 R60MC(1) ,
  2 CCLAVE60(1) CHAR(2) ,
  2 CFACPE60(1) CHAR(1) ,
  2 CNHIST60(1) CHAR(6) ,
  2 CNCASO60(1) CHAR(5) ,
  2 CNFACT60(1) CHAR(6) ,
  2 CFFACT60(1) CHAR(8) ,
  2 CFMOVI60(1) CHAR(8) ,
  2 CNCAMA60(1) CHAR(5) ,
  2 CSPLAN60(1) CHAR(3) ,
  2 CFINGR60(1) CHAR(8) ,
  2 CFALTA60(1) CHAR(8) ,
  2 CTPACI60(1) CHAR(3) ,
  2 CCOPRO60(1) CHAR(2) ,
  2 CTASI60(1) CHAR(1) ,
  2 CTECO60(1) CHAR(1) ,
  2 CENTD60(1) CHAR(2) ,
  2 CTECCO60(1) CHAR(1) ,
  2 CBLAN1(1) CHAR(2) ,
  2 CIMPOR60(1) BIN FIXED(31) ,
  2 CSREAL60(1) CHAR(3) ,
  2 CBLAN2(1) CHAR(6) ,
  2 CSSOLI60(1) CHAR(3) ,
  2 CBLANC60(1) CHAR(21) ,
  2 CINTCI60(1) CHAR(1) ,
  2 CFLAG60(1) CHAR(1) ,
  2 CRESER60(1) CHAR(2) ;

0 0 0 DCL  1 R70MC(1) ,
  2 CCLAVE70(1) CHAR(2) ,
  2 CFACPE70(1) CHAR(1) ,
  2 CNHIST70(1) CHAR(6) ,
  2 CNCASO70(1) CHAR(5) ,
  2 CNFACT70(1) CHAR(6) ,
  2 CFFACT70(1) CHAR(8) ,
  2 CFINIC70(1) CHAR(8) ,
  2 CNCAMA70(1) CHAR(5) ,
  2 CSPLAN70(1) CHAR(3) ,
  2 CFINGR70(1) CHAR(8) ,
  2 CFALTA70(1) CHAR(8) ,
  2 CTPACI70(1) CHAR(3) ,
  2 CCOPRO70(1) CHAR(2) ,
  2 CTASI70(1) CHAR(1) ,
  2 CTECO70(1) CHAR(1) ,
  2 CENTD70(1) CHAR(2) ,
  2 CTECCO70(1) CHAR(1) ,
  2 CDIASI70(1) BIN FIXED(15) ,
  2 CIMPOR70(1) BIN FIXED(31) ,
  2 CSREAL70(1) CHAR(3) ,
  2 CBLAN1(1) CHAR(6) ,
  2 CSSOLI70(1) CHAR(3) ,
  2 CBLANC70(1) CHAR(21) ,
  2 CINTCI70(1) CHAR(1) ,
  2 CRESER70(1) CHAR(3) ;

0 0 0 DCL  1 R80MC(1) ,
  2 CCLAVE80(1) CHAR(2) ,
  2 CFACPE80(1) CHAR(1) ,
  2 CNHIST80(1) CHAR(6) ,
  2 CNCASO80(1) CHAR(5) ,
  2 CNFACT80(1) CHAR(6) ,
  2 CFFACT80(1) CHAR(8) ,
  2 CFSOLI80(1) CHAR(8) ,
  2 CNCAMA80(1) CHAR(5) ,
  2 CSPLAN80(1) CHAR(3) ,
  2 CFINGR80(1) CHAR(8) ,
  2 CFALTA80(1) CHAR(8) ,
  2 CTPACI80(1) CHAR(3) ,
  2 CCOPRO80(1) CHAR(2) ,
  2 CTASI80(1) CHAR(1) ,
  2 CTECO80(1) CHAR(1) ,
  2 CENTD80(1) CHAR(2) ,
  2 CTECCO80(1) CHAR(1) ,
  2 CCANTI80(1) BIN FIXED(15) ,
  2 CIMPOR80(1) BIN FIXED(31) ,
  2 CSREAL80(1) CHAR(3) ,
  2 CTRABA80(1) CHAR(6) ,
  2 CSSOLI80(1) CHAR(3) ,
  2 CDOCTO80(1) CHAR(2) ,
  2 CGRSUP80(1) CHAR(2) ,
  2 CURGEN80(1) CHAR(1) ,
  2 CFREAL80(1) CHAR(8) ,
  2 CBLANC80(1) CHAR(8) ,
  2 CINTCI80(1) CHAR(1) ,
  2 CFLAG80(1) CHAR(1) ,
  2 CRESER80(1) CHAR(10) ,
  2 CTARIF80(1) BIN FIXED(31) ,
  2 CDESCU80(1) CHAR(1) ;

0 0 0 DCL  1 REEN(1) ,
  2 RNUM(1) BIN FIXED(31) BINARIO,
  2 RCLAV(1) CHAR(1) 			TEXSINCOM,
  2 RSOC(1) CHAR(48) 			TEXSINCOM,
  2 RCFSOC(1) CHAR(3) 		BINARIO,
  2 RSEG(1) CHAR(48) 			TEXSINCOM,
  2 RCFSEG(1) CHAR(3) 		BINARIO,
  2 RCIF(1) CHAR(12) 			TEXSINCOM,
  2 RDOMI(1) CHAR(48) 		TEXSINCOM,
  2 RPOBL(1) CHAR(24) 		TEXSINCOM,
  2 RPROV(1) CHAR(1) 			TABLA TXPROV,
  2 RPROVE(1) CHAR(24) 		TEXSINCOM,
  2 RPAIS(1) CHAR(1) 			TABLA TXPAIS,
  2 RCIP(1) BIN FIXED(31) BINARIO,
  2 RTELEF(1) CHAR(14) 		TEXSINCOM,
  2 RATEN(1) CHAR(48) 		TEXSINCOM,
  2 RESUP(1) BIN FIXED(31) BINARIO,
  2 RCFACT(1) CHAR(6) 		TEXSINCOM,
  2 RCARE(1) CHAR(1) 			BINARIO,
  2 ROBSER(1) CHAR(48) 		TEXSINCOM,
  2 RDIRIG(1) CHAR(48) 		TEXSINCOM,
  2 RCDOMI(1) CHAR(48) 		TEXSINCOM,
  2 RCPOBL(1) CHAR(24) 		TEXSINCOM,
  2 RCPROV(1) CHAR(1) 		TABLA TXPROV,
  2 RCPROVE(1) CHAR(24) 	TEXSINCOM,
  2 RCPAIS(1) CHAR(1) 		TABLA TXPAIS,
  2 RCCIP(1) BIN FIXED(31) BINARIO,
  2 RCTELEF(1) CHAR(14) 	TEXSINCOM,
  2 RCATEN(1) CHAR(48) 		TEXSINCOM,
  2 ROPER(1) CHAR(3) 			TEXSINCOM,
  2 RFECHAC(1) CHAR(8) 		TEXSINCOM,
  2 RHOMIAC(1) CHAR(4) 		TEXSINCOM,
  2 ROPERU(1) CHAR(3) 		TEXSINCOM,
  2 RFECHU(1) CHAR(8) 		TEXSINCOM,
  2 RHOMIU(1) CHAR(4) 		TEXSINCOM,
  2 RFAX(1) CHAR(14) 			TEXSINCOM,
  2 RTIPRE(1) CHAR(1) 		TEXSINCOM,
  2 RETECO(1) CHAR(1) 		TEXSINCOM,
  2 REENTID(1) CHAR(2) 		TEXSINCOM,
  2 RETECR(1) CHAR(1) 		TEXSINCOM,
  2 RERESER(1) CHAR(64) 	TEXSINCOM;

0 0 0 DCL  1 RENP(1) ,
  2 RNNUM(1) BIN FIXED(31) ,
  2 RNCLAV(1) CHAR(1) ,
  2 RNNOMB(1) CHAR(48) ,
  2 RNCFNOM(1) CHAR(3) ,
  2 RNDNI(1) CHAR(12) ,
  2 RNDIRE(1) CHAR(48) ,
  2 RNPOBL(1) CHAR(24) ,
  2 RNPROV(1) CHAR(1) ,
  2 RNPROVE(1) CHAR(24) ,
  2 RNPAIS(1) CHAR(1) ,
  2 RNCIP(1) BIN FIXED(31) ,
  2 RNTELEF(1) CHAR(14) ,
  2 RNOPERC(1) CHAR(3) ,
  2 RNFECHC(1) CHAR(8) ,
  2 RNHOMIC(1) CHAR(4) ,
  2 RNOPERU(1) CHAR(3) ,
  2 RNFECHU(1) CHAR(8) ,
  2 RNHOMIU(1) CHAR(4) ,
  2 RNSEXO(1) CHAR(1) ,
  2 RNFECHNA(1) CHAR(4) ,
  2 RNECART(1) CHAR(1) ,
  2 RNRESER(1) CHAR(277) ;

0 0 0 DCL  1 REPC(1) ,
  2 RSNUM(1) BIN FIXED(31) ,
  2 RSCLAV(1) CHAR(1) ,
  2 RSHIST(1) BIN FIXED(31) ,
  2 RSOPERC(1) CHAR(3) ,
  2 RSFECHC(1) CHAR(8) ,
  2 RSHOMIC(1) CHAR(4) ,
  2 RSOPERU(1) CHAR(3) ,
  2 RSFECHU(1) CHAR(8) ,
  2 RSHOMIU(1) CHAR(4) ,
  2 RSECART(1) CHAR(1) ,
  2 RSRESER(1) CHAR(270) ;

0 0 0 DCL  1 CUO40KST(1) ,
  2 RABCLPR(1) BIN FIXED(31) ,
  2 RABIXFE(1)  ,
   3 RABFARC(1) CHAR(4) ,
   3 RABNABX(1) BIN FIXED(31) ,
  2 RABIXRE(1)  ,
   3 RABRECO(1) BIN FIXED(31) ,
   3 RABCOMP(1) CHAR(1) ,
   3 RABNABY(1) BIN FIXED(31) ,
  2 RABTIPO(1) CHAR(2) ,
  2 RABCONC(1) CHAR(40) ,
  2 RABFECH(1) CHAR(4) ,
  2 RABFECC(1) CHAR(4) ,
  2 RABHARC(1) CHAR(2) ,
  2 RABIMPO(1) DEC FIXED(15,2) ,
  2 RABNRET(1) BIN FIXED(31) ,
  2 RABNAPU(1) BIN FIXED(15) ,
  2 RABCUSR(1) CHAR(3) ,
  2 RABCDAT(1) CHAR(4) ,
  2 RABCTIM(1) CHAR(2) ,
  2 RABAUSR(1) CHAR(3) ,
  2 RABADAT(1) CHAR(4) ,
  2 RABATIM(1) CHAR(2) ,
  2 RABIMPC(1) DEC FIXED(15,2) ,
  2 RABLACU(1) CHAR(1) ,
  2 RABPAD1(1) CHAR(41) ,
  2 RABPAD2(1) CHAR(50) ;

0 0 0 DCL  1 CUO43KST(1) ,
  2 RFAAPOS(1)  ,
   3 RFAPPTIP(1) CHAR(1) ,
   3 RFAPPNUM(1) BIN FIXED(31) ,
   3 RFAPNTIP(1) CHAR(1) ,
   3 RFAPNNUM(1) BIN FIXED(31) ,
  2 RFAANEG(1)  ,
   3 RFANNTIP(1) CHAR(1) ,
   3 RFANNNUM(1) BIN FIXED(31) ,
   3 RFANPTIP(1) CHAR(1) ,
   3 RFANPNUM(1) BIN FIXED(31) ,
  2 RFAFECH(1) CHAR(4) ,
  2 RFAIMPO(1) BIN FIXED(31) ,
  2 RFACUSR(1) CHAR(3) ,
  2 RFACDAT(1) CHAR(4) ,
  2 RFACTIM(1) CHAR(2) ,
  2 RFAAUSR(1) CHAR(3) ,
  2 RFAADAT(1) CHAR(4) ,
  2 RFAATIM(1) CHAR(2) ,
  2 RFARESE(1) CHAR(50) ;

0 0 0 DCL  1 CUO43KHT(1) ,
  2 RFAPPTIP(1) CHAR(1) ,
  2 RFAPPNUM(1) BIN FIXED(31) ,
  2 RFAPNTIP(1) CHAR(1) ,
  2 RFAPNNUM(1) BIN FIXED(31) ,
  2 RFAANEG(1) CHAR(10) ,
  2 RFAFECH(1) CHAR(4) ,
  2 RFAIMPO(1) BIN FIXED(31) ,
  2 RFACUSR(1) CHAR(3) ,
  2 RFACDAT(1) CHAR(4) ,
  2 RFACTIM(1) CHAR(2) ,
  2 RFAAUSR(1) CHAR(3) ,
  2 RFAADAT(1) CHAR(4) ,
  2 RFAATIM(1) CHAR(2) ,
  2 RFARESE(1) CHAR(50) ;

0 0 0 DCL  1 MPDICO(1) ,
  2 RCOCGRU(1)  ,
   3 RCOTIP1(1) CHAR(1) ,
   3 RCOGRUP(1) CHAR(6) ,
   3 RCOCCLA(1)  ,
    4 RCOTIP2(1) CHAR(1) ,
    4 RCOCLAV(1) PIC'999999' ,
  2 RCOCNEM(1)  ,
   3 RCOTIP3(1) CHAR(1) ,
   3 RCONEMO(1) CHAR(10) ,
  2 RCOPAD1(1) CHAR(30) ,
  2 RCOSTAD(1) CHAR(1) ,
  2 RCOCUSR(1) CHAR(3) ,
  2 RCOCDAT(1) CHAR(4) ,
  2 RCOCTIM(1) CHAR(2) ,
  2 RCOAUSR(1) CHAR(3) ,
  2 RCOADAT(1) CHAR(4) ,
  2 RCOATIM(1) CHAR(2) ,
  2 RCODESC(1) CHAR(15) ,
  2 RCODESL(1) CHAR(50) ,
  2 RCOUNID(1) CHAR(1) ,
  2 RCODENS(1) DEC FIXED(5,3) ,
  2 RCOCANT(1) DEC FIXED(9,2) ,
  2 RCOPROT(1) DEC FIXED(9,2) ,
  2 RCOHCAR(1) DEC FIXED(9,2) ,
  2 RCOGRAS(1) DEC FIXED(9,2) ,
  2 RCOSODI(1) DEC FIXED(9,2) ,
  2 RCOPOTA(1) DEC FIXED(9,2) ,
  2 RCOCALC(1) DEC FIXED(9,2) ,
  2 RCOCALO(1) DEC FIXED(9,2) ,
  2 RCOCRTS(10) CHAR(1) ,
  2 RCOCOLE(1) DEC FIXED(9,2) ,
  2 RCOPOLI(1) DEC FIXED(9,2) ,
  2 RCOMONO(1) DEC FIXED(9,2) ,
  2 RCOSATU(1) DEC FIXED(9,2) ,
  2 RCOFIBR(1) DEC FIXED(9,2) ,
  2 RCOFOSF(1) DEC FIXED(9,2) ,
  2 RCOHIER(1) DEC FIXED(9,2) ,
  2 RCOYODO(1) DEC FIXED(9,2) ;

0 0 0 DCL  1 MPDIGC(1) ,
  2 RGCCGRU(1)  ,
   3 RGCTIP1(1) CHAR(1) ,
   3 RGCGRUP(1) CHAR(6) ,
   3 RGCCCLA(1)  ,
    4 RGCTIP2(1) CHAR(1) ,
    4 RGCCLAV(1) CHAR(6) ,
  2 RGCCNEM(1)  ,
   3 RGCTIP3(1) CHAR(1) ,
   3 RGCNEMO(1) CHAR(10) ,
  2 RGCPAD1(1) CHAR(30) ,
  2 RGCSTAD(1) CHAR(1) ,
  2 RGCCUSR(1) CHAR(3) ,
  2 RGCCDAT(1) CHAR(4) ,
  2 RGCCTIM(1) CHAR(2) ,
  2 RGCAUSR(1) CHAR(3) ,
  2 RGCADAT(1) CHAR(4) ,
  2 RGCATIM(1) CHAR(2) ,
  2 RGCDESC(1) CHAR(15) ,
  2 RGCDESL(1) CHAR(50) ;

0 0 0 DCL  1 MPDIPL(1) ,
  2 RPLCGRU(1)  ,
   3 RPLTIP1(1) CHAR(1) ,
   3 RPLGRUP(1) CHAR(6) ,
   3 RPLCCLA(1)  ,
    4 RPLTIP2(1) CHAR(1) ,
    4 RPLCLAV(1) PIC'999999' ,
  2 RPLCNEM(1)  ,
   3 RPLTIP3(1) CHAR(1) ,
   3 RPLNEMO(1) CHAR(10) ,
  2 RPLPAD1(1) CHAR(30) ,
  2 RPLSTAD(1) CHAR(1) ,
  2 RPLCUSR(1) CHAR(3) ,
  2 RPLCDAT(1) CHAR(4) ,
  2 RPLCTIM(1) CHAR(2) ,
  2 RPLAUSR(1) CHAR(3) ,
  2 RPLADAT(1) CHAR(4) ,
  2 RPLATIM(1) CHAR(2) ,
  2 RPLDESC(1) CHAR(15) ,
  2 RPLDESL(1) CHAR(50) ,
  2 RPLUNID(1) CHAR(1) ,
  2 RPLDENS(1) DEC FIXED(5,3) ,
  2 RPLCANT(1) DEC FIXED(9,2) ,
  2 RPLPROT(1) DEC FIXED(9,2) ,
  2 RPLHCAR(1) DEC FIXED(9,2) ,
  2 RPLGRAS(1) DEC FIXED(9,2) ,
  2 RPLSODI(1) DEC FIXED(9,2) ,
  2 RPLPOTA(1) DEC FIXED(9,2) ,
  2 RPLCALC(1) DEC FIXED(9,2) ,
  2 RPLCALO(1) DEC FIXED(9,2) ,
  2 RPLCRTS(10) CHAR(1) ,
  2 RPLSELP(1) CHAR(1) ,
  2 RPLPAD2(1) CHAR(2) ,
  2 RPLPREP(1) CHAR(1) ,
  2 RPLCOMP(12)  ,
   3 RPLCCOP(1) CHAR(1) ,
   3 RPLCPES(1) CHAR(1) ,
   3 RPLCCOD(1) CHAR(6) ,
   3 RPLCCAN(1) DEC FIXED(9,2) ,
   3 RPLCUND(1) CHAR(1) ,
  2 RPLCOLE(1) DEC FIXED(9,2) ,
  2 RPLPOLI(1) DEC FIXED(9,2) ,
  2 RPLMONO(1) DEC FIXED(9,2) ,
  2 RPLSATU(1) DEC FIXED(9,2) ,
  2 RPLFIBR(1) DEC FIXED(9,2) ,
  2 RPLFOSF(1) DEC FIXED(9,2) ,
  2 RPLHIER(1) DEC FIXED(9,2) ,
  2 RPLYODO(1) DEC FIXED(9,2) ;

0 0 0 DCL  1 MPDIGP(1) ,
  2 RGPCGRU(1)  ,
   3 RGPTIP1(1) CHAR(1) ,
   3 RGPGRUP(1) CHAR(6) ,
   3 RGPCCLA(1)  ,
    4 RGPTIP2(1) CHAR(1) ,
    4 RGPCLAV(1) CHAR(6) ,
  2 RGPCNEM(1)  ,
   3 RGPTIP3(1) CHAR(1) ,
   3 RGPNEMO(1) CHAR(10) ,
  2 RGPPAD1(1) CHAR(30) ,
  2 RGPSTAD(1) CHAR(1) ,
  2 RGPCUSR(1) CHAR(3) ,
  2 RGPCDAT(1) CHAR(4) ,
  2 RGPCTIM(1) CHAR(2) ,
  2 RGPAUSR(1) CHAR(3) ,
  2 RGPADAT(1) CHAR(4) ,
  2 RGPATIM(1) CHAR(2) ,
  2 RGPDESC(1) CHAR(15) ,
  2 RGPDESL(1) CHAR(50) ;

0 0 0 DCL  1 MPDICD(1) ,
  2 RCDCGRU(1)  ,
   3 RCDTIP1(1) CHAR(7) ,
   3 RCDCCLA(1) CHAR(7) ,
  2 RCDCNEM(1) CHAR(11) ,
  2 RCDPAD1(1) CHAR(31) ,
  2 RCDAUSR(1) CHAR(3) ,
  2 RCDADAT(1) CHAR(4) ,
  2 RCDATIM(1) CHAR(2) ,
  2 RCDNCAM(1) BIN FIXED(15) ,
  2 RCDTCAM(50)  ,
   3 RCDTDAT(1) CHAR(4) ,
   3 RCDTTDI(1) CHAR(1) ,
   3 RCDTSRC(1) CHAR(3) ,
   3 RCDTTGT(1) CHAR(3) ,
  2 RCDPAD2(1) CHAR(50) ;

0 0 0 DCL  1 MPDIDIB(1) ,
  2 RDIBPFJ(1)  ,
   3 RDIBCLA(1)  ,
    4 RDIBCTR(1) CHAR(1) ,
    4 RDIBCTD(1) CHAR(1) ,
    4 RDIBCCL(1) CHAR(6) ,
    4 RDIBCTP(1) CHAR(1) ,
    4 RDIBCNA(1) BIN FIXED(15) ,
    4 RDIBCPD(1) CHAR(9) ,
   3 RDIBPD1(1) CHAR(30) ,
   3 RDIBSTD(1) CHAR(1) ,
   3 RDIBAUS(1) CHAR(3) ,
   3 RDIBADT(1) CHAR(4) ,
   3 RDIBATM(1) CHAR(2) ,
   3 RDIBUUS(1) CHAR(3) ,
   3 RDIBUDT(1) CHAR(4) ,
   3 RDIBUTM(1) CHAR(2) ,
   3 RDIBDEC(1) CHAR(15) ,
   3 RDIBDEL(1) CHAR(50) ,
   3 RDIBCRT(20) CHAR(1) ,
   3 RDIBFEC(1) CHAR(4) ,
   3 RDIBNDI(1) BIN FIXED(15) ,
   3 RDIBPD2(1) CHAR(50) ,
  2 RDIBNEL(1) BIN FIXED(15) ,
  2 RDIBPVR(1)  ,
   3 RDIBELI(IDIB REFER (RDIBNEL) MAX 5) ,
    4 RDIBECD(1) CHAR(6) ,
    4 RDIBEID(1) CHAR(1) ,
    4 RDIBEPD(1) CHAR(6) ;

0 0 0 DCL  1 MPDIDID(1) ,
  2 RDIDPFJ(1)  ,
   3 RDIDCLA(1)  ,
    4 RDIDCTR(1) CHAR(1) ,
    4 RDIDCTD(1) CHAR(1) ,
    4 RDIDCCL(1) CHAR(6) ,
    4 RDIDCTP(1) CHAR(1) ,
    4 RDIDCNA(1) BIN FIXED(15) ,
    4 RDIDCDR(1) BIN FIXED(15) ,
    4 RDIDCPD(1) CHAR(7) ,
   3 RDIDPD1(1) CHAR(31) ,
   3 RDIDAUS(1) CHAR(3) ,
   3 RDIDADT(1) CHAR(4) ,
   3 RDIDATM(1) CHAR(2) ,
   3 RDIDUUS(1) CHAR(3) ,
   3 RDIDUDT(1) CHAR(4) ,
   3 RDIDUTM(1) CHAR(2) ,
   3 RDIDPD2(1) CHAR(50) ,
  2 RDIDNPL(1) BIN FIXED(15) ,
  2 RDIDNCO(1) BIN FIXED(15) ,
  2 RDIDPVR(1)  ,
   3 RDIDPLA(IDID REFER (RDIDNPL) MAX 5) ,
    4 RDIDPHR(1) CHAR(2) ,
    4 RDIDPME(1) CHAR(1) ,
    4 RDIDPCO(1) CHAR(6) ,
    4 RDIDPCC(1) CHAR(1) ,
    4 RDIDPCA(1) DEC FIXED(9,2) ,
    4 RDIDPUN(1) CHAR(1) ,
    4 RDIDPCR(10) CHAR(1) ,
    4 RDIDPCM(1) BIN FIXED(15) ,
    4 RDIDPD3(1) CHAR(2) ,
   3 RDIDTCO(JDID REFER (RDIDNCO) MAX 5) CHAR(60) ;

0 0 0 DCL  1 MPDIPPB(1) ,
  2 RPPBCLA(1)  ,
   3 RPPBCTR(1) CHAR(1) ,
   3 RPPBCCL(1) PIC'999999' ,
   3 RPPBCPD(1) CHAR(13) ,
  2 RPPBPD1(1) CHAR(30) ,
  2 RPPBSTD(1) CHAR(1) ,
  2 RPPBAUS(1) CHAR(3) ,
  2 RPPBADT(1) CHAR(4) ,
  2 RPPBATM(1) CHAR(2) ,
  2 RPPBUUS(1) CHAR(3) ,
  2 RPPBUDT(1) CHAR(4) ,
  2 RPPBUTM(1) CHAR(2) ,
  2 RPPBPD2(1) CHAR(50) ,
  2 RPPBFRF(1) CHAR(4) ,
  2 RPPBNDS(1) BIN FIXED(15) ;

0 0 0 DCL  1 MPDIPPD(1) ,
  2 RPPDPFJ(1)  ,
   3 RPPDCLA(1)  ,
    4 RPPDCTR(1) CHAR(1) ,
    4 RPPDCCL(1) PIC'999999' ,
    4 RPPDCDR(1) BIN FIXED(15) ,
    4 RPPDCPD(1) CHAR(11) ,
   3 RPPDPD1(1) CHAR(31) ,
   3 RPPDAUS(1) CHAR(3) ,
   3 RPPDADT(1) CHAR(4) ,
   3 RPPDATM(1) CHAR(2) ,
   3 RPPDUUS(1) CHAR(3) ,
   3 RPPDUDT(1) CHAR(4) ,
   3 RPPDUTM(1) CHAR(2) ,
   3 RDIBPD2(1) CHAR(50) ,
  2 RPPDNPL(1) BIN FIXED(15) ,
  2 RPPDPVR(1)  ,
   3 RPPDPLA(IPPD REFER (RPPDNPL) MAX 5) ,
    4 RPPDPHR(1) CHAR(2) ,
    4 RPPDPCO(1) CHAR(6) ,
    4 RPPDPCI(1) BIN FIXED(31) ,
    4 RPPDPCA(1) BIN FIXED(31) ,
    4 RPPDPPD(1) CHAR(6) ;

0 0 0 DCL  1 MPDIOAB(1) ,
  2 ROABPFJ(1)  ,
   3 ROABCLA(1)  ,
    4 ROABCTR(1) CHAR(1) ,
    4 ROABCHI(1) CHAR(3) ,
    4 ROABCTP(1) CHAR(1) ,
    4 ROABCNA(1) BIN FIXED(15) ,
    4 ROABCPD(1) CHAR(13) ,
   3 ROABPD1(1) CHAR(30) ,
   3 ROABSTD(1) CHAR(1) ,
   3 ROABAUS(1) CHAR(3) ,
   3 ROABADT(1) CHAR(4) ,
   3 ROABATM(1) CHAR(2) ,
   3 ROABUUS(1) CHAR(3) ,
   3 ROABUDT(1) CHAR(4) ,
   3 ROABUTM(1) CHAR(2) ,
   3 ROABDIE(3)  ,
    4 ROABDTD(1) CHAR(1) ,
    4 ROABDCD(1) CHAR(3) ,
    4 ROABDDT(1) CHAR(4) ,
    4 ROABDTM(1) CHAR(2) ,
   3 ROABPD3(1) CHAR(20) ,
   3 ROABCRT(20) CHAR(1) ,
   3 ROABNAC(1) BIN FIXED(15) ,
   3 ROABDPO(1) CHAR(3) ,
   3 ROABPD2(1) CHAR(47) ,
  2 ROABCSZ(1) BIN FIXED(15) ,
  2 ROABNEL(1) BIN FIXED(15) ,
  2 ROABPVR(1)  ,
   3 ROABELI(IOAB REFER (ROABNEL) MAX 5)  ,
    4 ROABECD(1) CHAR(6) ,
    4 ROABEID(1) CHAR(1) ,
    4 ROABEPD(1) CHAR(6) ,
   3 ROABCOM(1) CHAR(JOAB REFER (ROABCSZ) MAX 5) ;

0 0 0 DCL  1 MPDIOAD(1) ,
  2 ROADPFJ(1)  ,
   3 ROADCLA(1)  ,
    4 ROADCTR(1) CHAR(1) ,
    4 ROADCHI(1) CHAR(3) ,
    4 ROADCTP(1) CHAR(1) ,
    4 ROADCNA(1) BIN FIXED(15) ,
    4 ROADCCA(1) DEC FIXED(5) ,
    4 ROADCFE(1) CHAR(4) ,
    4 ROADCPD(1) CHAR(6) ,
   3 ROADPD1(1) CHAR(30) ,
   3 ROADSTD(1) CHAR(1) ,
   3 ROADAUS(1) CHAR(3) ,
   3 ROADADT(1) CHAR(4) ,
   3 ROADATM(1) CHAR(2) ,
   3 ROADUUS(1) CHAR(3) ,
   3 ROADUDT(1) CHAR(4) ,
   3 ROADUTM(1) CHAR(2) ,
   3 ROADCDI(1) CHAR(3) ,
   3 ROADPD2(1) CHAR(50) ,
  2 ROADNPL(1) BIN FIXED(15) ,
  2 ROADNCO(1) BIN FIXED(15) ,
  2 ROADPVR(1)  ,
   3 ROADPLA(IOAD REFER (ROADNPL) MAX 5)  ,
    4 ROADPHR(1) CHAR(2) ,
    4 ROADPME(1) CHAR(1) ,
    4 ROADPCO(1) CHAR(6) ,
    4 ROADPCC(1) CHAR(1) ,
    4 ROADPCA(1) DEC FIXED(9,2) ,
    4 ROADPUM(1) CHAR(1) ,
    4 ROADPCR(10) CHAR(1) ,
    4 ROADPCM(1) BIN FIXED(15) ,
    4 ROADPPD(1) CHAR(2) ,
   3 ROADCOM(L REFER (ROADNCO) MAX 5) CHAR(60) ;

0 0 0 DCL  1 MPDIPE(1) ,
  2 RPECHIS(1)  ,
   3 RPEHTIP(1) CHAR(1) ,
   3 RPEHIST(1) CHAR(3) ,
   3 RPEHCAS(1) DEC FIXED(5) ,
   3 RPECPRI(1)  ,
    4 RPECTIP(1) CHAR(1) ,
    4 RPECNUM(1) BIN FIXED(31) ,
    4 RPECPAD(1) CHAR(2) ,
  2 RPESERV(1)  ,
   3 RPESTIP(1) CHAR(1) ,
   3 RPESLIS(1) CHAR(1) ,
   3 RPESSER(1) CHAR(2) ,
   3 RPESNUM(1) BIN FIXED(31) ,
   3 RPESPAD(1) CHAR(3) ,
  2 RPEORIG(1) CHAR(1) ,
  2 RPEPAD1(1) CHAR(30) ,
  2 RPECUSR(1) CHAR(3) ,
  2 RPECDAT(1) CHAR(4) ,
  2 RPECTIM(1) CHAR(2) ,
  2 RPEAUSR(1) CHAR(3) ,
  2 RPEADAT(1) CHAR(4) ,
  2 RPEATIM(1) CHAR(2) ,
  2 RPECAMA(1) CHAR(2) ,
  2 RPEPLAT(10)  ,
   3 RPEPPD1(1) CHAR(3) ,
   3 RPEPCOD(1) CHAR(6) ,
   3 RPEPCAN(1) DEC FIXED(9,2) ,
   3 RPEPUME(1) CHAR(1) ,
   3 RPEPCRS(10) CHAR(1) ,
   3 RPEPPD2(1) CHAR(20) ,
  2 RPEPAD2(1) CHAR(100) ;

0 0 0 DCL  1 RECEN(1) ,
  2 FCCLAVE(1)  ,
   3 FCCLAV1(1)  ,
    4 FCTREG(1) CHAR(1) ,
    4 FETTRA(1) CHAR(1) ,
    4 FECLAV(1) CHAR(6) ,
    4 FEBLA2(1) CHAR(1) ,
   3 FCCLAV2(1) BIN FIXED(15) ,
  2 FCOPER(1) CHAR(3) ,
  2 FCFULAC(1) CHAR(4) ,
  2 FCHULAC(1) CHAR(2) ,
  2 FCESREG(1) CHAR(1) ,
  2 FCFVALI(1) CHAR(4) ,
  2 FCCLAVA(1) BIN FIXED(15) ,
  2 FCCLAVN(1) CHAR(10) ,
  2 FCTREGN(1) CHAR(1) ,
  2 FCCLA2N(1) BIN FIXED(15) ,
  2 FCDESCR(1) CHAR(48) ,
  2 FENUMTA(1) BIN FIXED(15) ,
  2 FENUMTS(1) BIN FIXED(15) ,
  2 FERESER(1) CHAR(18) ;

0 0 0 DCL  1 RPRUEB(1) ,
  2 FCCLAVE(1)  ,
   3 FCCLAV1(1)  ,
    4 FCTREG(1) CHAR(1) TEXSINCOM,
    4 FPBLA1(1) CHAR(1) TEXSINCOM,
    4 FPCLAV(1) CHAR(6) TEXSINCOM,
    4 FPBLA2(1) CHAR(1) TEXSINCOM,
   3 FCCLAV2(1) BIN FIXED(15) BINARIO,
  2 FCOPER(1) CHAR(3) TEXSINCOM,
  2 FCFULAC(1) CHAR(4) FECABS,
  2 FCHULAC(1) CHAR(2) ENTSINSIG,
  2 FCESREG(1) BIN FIXED(7) BINARIO,
  2 FCFVALI(1) CHAR(4) ENTSINSIG,
  2 FCCLAVA(1) BIN FIXED(15) BINARIO,
  2 FCCLAVN(1) CHAR(10) TEXSINCOM,
  2 FCTREGN(1) CHAR(1) TEXSINCOM,
  2 FCCLA2N(1) BIN FIXED(15) BINARIO,
  2 FCDESCR(1) CHAR(48) TEXSINCOM,
  2 FCDESCA(1) CHAR(15) TEXSINCOM,
  2 FPSREAL(1) CHAR(2) TABLA TCSERV,
  2 FPGRUCO(1) BIN FIXED(15) BINARIO,
  2 FPGRUFA(1) BIN FIXED(15) BINARIO,
  2 FPDESCU(1) BIN FIXED(7)  BINARIO,
  2 FC_FSUPCON(1) CHAR(4) FECABS,
  2 FC_FSUPTAR(1) CHAR(4) FECABS,
  2 FC_FINFENT(1) CHAR(4) FECABS,
  2 FC_FSUPENT(1) CHAR(4) FECABS,
  2 FPAMPLI(1) CHAR(1) TEXSINCOM,
  2 FPRESER(1) CHAR(73) TEXSINCOM;

0 0 0 DCL  1 RTPRUE(1) ,
  2 TCCLAVE(1)  ,
   3 TCCLAV1(1)  ,
    4 TCTREG(1) CHAR(1) ,
    4 TCNUMTA(1) BIN FIXED(15) ,
    4 TPBLA1(1) CHAR(1) ,
    4 TPCLAV(1) CHAR(6) ,
    4 TPBLA2(1) CHAR(1) ,
   3 TCCLAV2(1) BIN FIXED(15) ,
  2 TCOPER(1) CHAR(3) ,
  2 TCFULAC(1) CHAR(4) ,
  2 TCHULAC(1) CHAR(2) ,
  2 TCESREG(1) CHAR(1) ,
  2 TCFVALI(1) CHAR(4) ,
  2 TCCLAVA(1) BIN FIXED(15) ,
  2 TPVALOR(1) BIN FIXED(31) ,
  2 TPVFORF(1) BIN FIXED(31) ,
  2 TPRESER(1) CHAR(63) ;

0 0 0 DCL  1 RINTER(1) ,
  2 FCCLAVE(1)  ,
   3 FCCLAV1(1)  ,
    4 FCTREG(1) CHAR(1) TEXSINCOM,
    4 FIBLA1(1) CHAR(1) TEXSINCOM,
    4 FICLAV(1) CHAR(6) TEXSINCOM,
    4 FIBLA2(1) CHAR(1) TEXSINCOM,
   3 FCCLAV2(1) BIN FIXED(15) BINARIO,
  2 FCOPER(1) CHAR(3) TEXSINCOM,
  2 FCFULAC(1) CHAR(4) TEXSINCOM,
  2 FCHULAC(1) CHAR(2) TEXSINCOM,
  2 FCESREG(1) BIN FIXED(7) BINARIO,
  2 FCFVALI(1) CHAR(4) ENTSINSIG,
  2 FCCLAVA(1) BIN FIXED(15) BINARIO,
  2 FCCLAVN(1) CHAR(10) TEXSINCOM,
  2 FCTREGN(1) CHAR(1) TEXSINCOM,
  2 FCCLA2N(1) BIN FIXED(15) BINARIO,
  2 FCDESCR(1) CHAR(48) TEXSINCOM,
  2 FCDESCA(1) CHAR(15) TEXSINCOM,
  2 FISREAL(1) CHAR(2) TABLA TCSERV,
  2 FIGRUCO(1) BIN FIXED(15) BINARIO,
  2 FIDIASP(1) BIN FIXED(15) BINARIO,
  2 FIDIASC(1) BIN FIXED(15) BINARIO,
  2 FIVPROT(1) BIN FIXED(31) BINARIO,
  2 FIRESER(1) CHAR(85) TEXSINCOM;

0 0 0 DCL  1 RGRCO(1) ,
  2 FCCLAVE(1)  ,
   3 FCCLAV1(1)  ,
    4 FCTREG(1) CHAR(1) ,
    4 FGBLA1(1) CHAR(1) ,
    4 FGCLAV(1) BIN FIXED(15) ,
    4 FGBLA2(1) CHAR(5) ,
   3 FGBLA3(1) CHAR(2) ,
  2 FCOPER(1) CHAR(3) ,
  2 FCFULAC(1) CHAR(4) ,
  2 FCHULAC(1) CHAR(2) ,
  2 FCESREG(1) CHAR(1) ,
  2 FGBLA4(1) CHAR(6) ,
  2 FCCLAVN(1) CHAR(10) ,
  2 FCTREGN(1) CHAR(1) ,
  2 FGBLA5(1) CHAR(2) ,
  2 FCDESCR(1) CHAR(48) ,
  2 FGRESER(1) CHAR(22) ;

0 0 0 DCL  1 RFARM(1) ,
  2 FCLAVE(1) CHAR(1) ,
  2 FCODIG(1) CHAR(6) ,
  2 FTPRIAC(4)  ,
   3 FNPRIAC(1) BIN FIXED(15) ,
   3 FPDOSIS(1) DEC FIXED(5) ,
   3 FPUNIME(1) CHAR(1) ,
  2 FCODNE(1) CHAR(10) ,
  2 FOPEUA(1) CHAR(2) ,
  2 FFECUA(1) CHAR(4) ,
  2 FHORUA(1) CHAR(2) ,
  2 FUNIME(1) CHAR(1) ,
  2 FUNIDO(1) CHAR(1) ,
  2 FUNIMP(1) CHAR(1) ,
  2 FVVESS(1) BIN FIXED(31) ,
  2 FGRUP1(1) CHAR(1) ,
  2 FBLAN1(1) CHAR(1) ,
  2 FPRESE(1) CHAR(1) ,
  2 FVIA(1) CHAR(1) ,
  2 FGRUPA(1) CHAR(5) ,
  2 FCODSS(1) CHAR(6) ,
  2 FVVENT(1) DEC FIXED(7) ,
  2 FCPRES(1) BIN FIXED(31) ,
  2 FDOSIS(1) DEC FIXED(7) ,
  2 FSIMBO(1) CHAR(8) ,
  2 FGENER(1) CHAR(12) ,
  2 FBACTE(1) CHAR(1) ,
  2 FREFER(1) CHAR(12) ,
  2 FDCTRL(1) CHAR(1) ,
  2 FTGEST(1) CHAR(1) ,
  2 FESREG(1) CHAR(1) ,
  2 FTIPREG(1) CHAR(1) ,
  2 FVOLUM(1) BIN FIXED(15) ,
  2 FDESCRI(1) CHAR(36) ,
  2 FPROV(1) BIN FIXED(15) ,
  2 FVCOMPR(1) BIN FIXED(31) ,
  2 FUENVAS(1) BIN FIXED(15) ,
  2 FLOCA(1) CHAR(1) ;

0 0 0 DCL  1 RCAMA(1)  ,
  2 HCAMA(1) CHAR(2)  ENTSINSIG,
  2 HNCAMA(1) CHAR(5)  TEXSINCOM,
  2 HOULAC(1) CHAR(2) TEXJUE40,
  2 HFULAC(1) CHAR(4) FECABS,
  2 HHULAC(1) CHAR(2) ENTSINSIG,
  2 HESREG(1) CHAR(1) ENTSINSIG,
  2 HSERPR(1) CHAR(2) TABLA TCSERV,
  2 HVALES(1) CHAR(1) TEXSINCOM,
  2 HVALEC(1) CHAR(2) TEXSINCOM,
  2 HTCAMA(1) CHAR(1) ENTSINSIG,
  2 HOCUPA(4)  ,
   3 HBLOQUEO(1) CHAR(1) ENTSINSIG,
   3 HHISTO(1) CHAR(3) ENTSINSIG,
   3 HCASO(1) CHAR(3) ENTCONSIG,
   3 HFENTR(1) CHAR(4) FECABS ,
   3 HHENTR(1) CHAR(2) ENTSINSIG,
   3 HFSALI(1) CHAR(4) FECABS,
   3 HHSALI(1) CHAR(2) ENTSINSIG,
  2 HFECE1(1) CHAR(4) FECABS,
  2 HHORE1(1) CHAR(2) ENTSINSIG,
  2 HFECE2(1) CHAR(4) FECABS,
  2 HHORE2(1) CHAR(2) ENTSINSIG,
  2 HCARRO(1) CHAR(1) TEXSINCOM,
  2 HRESER(1) CHAR(14) TEXSINCOM;

0 0 0 DCL  1 CUO63KST(1) ,
  2 ACUIPOL(1)  ,
   3 ACUNPOL(1) PIC'999999' TEXSINCOM,
   3 ACUNASE(1) PIC'999999' TEXSINCOM,
  2 ACUINOM(1)  ,
   3 ACUNOMB(1) CHAR(40) TEXSINCOM,
   3 ACUINNP(1) PIC'999999' TEXSINCOM,
   3 ACUINAS(1) PIC'999999' TEXSINCOM,
  2 ACUIHIS(1)  ,
   3 ACUHIST(1) PIC'999999' TEXSINCOM,
   3 ACUORDE(1) PIC'99' TEXSINCOM,
   3 ACUFECH(1) CHAR(8) TEXSINCOM,
   3 ACUIHNP(1) PIC'999999' TEXSINCOM,
   3 ACUIHAS(1) PIC'999999' TEXSINCOM,
  2 ACUFINI(1) CHAR(8) TEXSINCOM,
  2 ACUFEFE(1) CHAR(8) TEXSINCOM,
  2 ACUFFIN(1) CHAR(8) TEXSINCOM,
  2 ACUNTOM(1) CHAR(40) TEXSINCOM,
  2 ACUDNI(1) CHAR(12) TEXSINCOM,
  2 ACUSEXO(1) CHAR(1) TEXSINCOM,
  2 ACUFNAC(1) CHAR(8) TEXSINCOM,
  2 ACUCPAG(1) CHAR(1) TEXSINCOM,
  2 ACUEXCL(1) CHAR(120) TEXSINCOM,
  2 ACUOBSE(1) CHAR(40) TEXSINCOM,
  2 ACUTPOL(1) CHAR(3) TEXSINCOM,
  2 ACUCUSR(1) CHAR(3) TEXSINCOM,
  2 ACUCDAT(1) CHAR(8) TEXSINCOM,
  2 ACUCTIM(1) CHAR(4) TEXSINCOM,
  2 ACUAUSR(1) CHAR(3) TEXSINCOM,
  2 ACUADAT(1) CHAR(8) TEXSINCOM,
  2 ACUATIM(1) CHAR(4) TEXSINCOM,
  2 ACUPAD1(1) CHAR(100) TEXSINCOM;

0 0 0 DCL  1 RHICA(1) ,
  2 VHISTOR(1) CHAR(3) ,
  2 VNCASO(1) DEC FIXED(5) ,
  2 VFECHIN(1) CHAR(4) ,
  2 VHORAIN(1) CHAR(2) ,
  2 VTPAC(1) CHAR(1) ,
  2 VTASI(1) CHAR(1) ,
  2 VCATA(1) CHAR(1) ,
  2 VNSER(1) CHAR(2) ,
  2 VNDOCRE(1) CHAR(2) ,
  2 VURGEN(1) CHAR(1) ,
  2 VTECO(1) CHAR(1) ,
  2 VENTI(1) CHAR(2) ,
  2 VFALTA(1) CHAR(4) ,
  2 VHALTA(1) CHAR(2) ,
  2 VMALTA(1) CHAR(1) ,
  2 VPAD(1) CHAR(10) ;

0 0 0 DCL  1 RSNA(1) ,
  2 RSHIST(1) BIN FIXED(31) ,
  2 RSCASO(1) BIN FIXED(15) ,
  2 RSNUMREG(1) BIN FIXED(15) ,
  2 RSFACT(1) BIN FIXED(31) ,
  2 RSNOMB(1) CHAR(48) ,
  2 RSFECHN(1) CHAR(4) ,
  2 RSSEXO(1) CHAR(1) ,
  2 RSCITE(1) CHAR(24) ,
  2 RSNSOE(1) BIN FIXED(31) ,
  2 RSCPOST(1) BIN FIXED(31) ,
  2 RSCING(1) CHAR(1) ,
  2 RSCALT(1) CHAR(1) ,
  2 RSTASI(1) CHAR(1) ,
  2 RSSERV(1) CHAR(2) ,
  2 RSFINI(1) CHAR(4) ,
  2 RSHINI(1) CHAR(2) ,
  2 RSFFIN(1) CHAR(4) ,
  2 RSHFIN(1) CHAR(2) ,
  2 RSOPERU(1) CHAR(3) ,
  2 RSFECHU(1) CHAR(4) ,
  2 RSHORAU(1) CHAR(2) ,
  2 RSOPERR(1) CHAR(3) ,
  2 RSFECHR(1) CHAR(4) ,
  2 RSHORAR(1) CHAR(2) ,
  2 RSTDIAG(4)  ,
   3 RSTCDIAG(1) CHAR(6) ,
   3 RSTDDIAG(1) CHAR(36) ,
  2 RSTIPO(1) BIN FIXED(15) ,
  2 RSCLASE(1) BIN FIXED(15) ,
  2 RSFECHA(1) CHAR(4) ,
  2 RSHORA(1) CHAR(2) ,
  2 RSCANT(1) BIN FIXED(31) ,
  2 RSIMPOR(1) BIN FIXED(31) ,
  2 RSCODIG(1) CHAR(6) ,
  2 RSDESCR(1) CHAR(36) ,
  2 RSREING(1) BIN FIXED(15) ,
  2 RSERR(1) BIN FIXED(15) ,
  2 RSTABERR(10) BIN FIXED(15) ,
  2 RSERONC(1) CHAR(2) ,
  2 RSPSOE(1) CHAR(1) ,
  2 RSDSOE(1) CHAR(1) ,
  2 RSMFACT(1) BIN FIXED(15) ,
  2 RSAFACT(1) BIN FIXED(15) ,
  2 RSTIPOR(1) CHAR(1) ,
  2 RSDOCT(1) CHAR(2) ,
  2 RSCODFAR(1) CHAR(6) ,
  2 RSTIPREG(1) CHAR(1) ,
  2 RSRESER(1) CHAR(52) ;

0 0 0 DCL  1 UNDE(1) ,
        2 UNDE_NUME                    ,
          3 UNDE_NUMECO    CHAR(3)     TEXSINCOM,
          3 UNDE_NUMENE    PIC'999999' TEXSINCOM,
          3 UNDE_NUMENB    PIC'999999' TEXSINCOM,
        2 UNDE_NOMB        CHAR(48)    TEXSINCOM,
        2 UNDE_HISTOR      PIC'999999' TEXSINCOM,
        2 UNDE_FINICI      CHAR(8)     TEXSINCOM,
        2 UNDE_FFINAL      CHAR(8)     TEXSINCOM,
        2 UNDE_MDESCU      CHAR(3)     TEXSINCOM,
        2 UNDE_RELACI      CHAR(1)     TEXSINCOM,
        2 UNDE_DNI         CHAR(12)    TEXSINCOM,
        2 UNDE_SEXO        CHAR(1)     TEXSINCOM,
        2 UNDE_ECOLAB      CHAR(1)     TEXSINCOM,
        2 UNDE_FNACIM      CHAR(8)     TEXSINCOM,
        2 UNDE_NCENTROS    BIN FIXED(7) BINARIOSS,
        2 UNDE_CARGO( I REFER (UNDE_NCENTROS) MAX 5),
          3 UNDE_CENTRO    CHAR(3)     TEXSINCOM,
          3 UNDE_CONTRA    CHAR(11)    TEXSINCOM,
          3 UNDE_PORCEN    PIC'999'    TEXSINCOM,
        2 UNDE_ADDUSR      CHAR(3)     TEXSINCOM,
        2 UNDE_ADDDAT      CHAR(8)     TEXSINCOM,
        2 UNDE_ADDTIM      CHAR(4)     TEXSINCOM,
        2 UNDE_UPDUSR      CHAR(3)     TEXSINCOM,
        2 UNDE_UPDDAT      CHAR(8)     TEXSINCOM,
        2 UNDE_UPDTIM      CHAR(4)     TEXSINCOM;

0 0 0 DCL 1 CIT2(1) UNAL BASED(P) ,       
      2 TIPO2       CHAR(1)	TEXSINCOM,      
      2 CODIGO2     CHAR(2)	BINARIO,      
      2 FECHA2      CHAR(4)	FECABS, 
      2 PAD2        CHAR(3)	TEXSINCOM,                                          
      2 COMENTARIO2 CHAR(50)	TEXSINCOM,     
      2 NHORAS2     PIC '99'	TEXSINCOM,     
      2 OVER2       PIC '99'	TEXSINCOM,     
      2 OCUPADAS2   PIC '99'	TEXSINCOM,     
      2 OCUPADASO2  PIC '99'	TEXSINCOM,     
      2 HORAS2(40),                                                   
       3 HORA2      BIN FIXED(15) BINARIO,
       3 HISTORIA2  CHAR(3)	ENTSINSIG,      
       3 CASO2      CHAR(3) 	ENTCONSIG,
       3 FECHACIT2  CHAR(4)	FECABS, 
       3 PAD22      CHAR(1)	TEXSINCOM,      
       3 CADRSV2    CHAR(4)	ENTCONSIG, 
       3 TPAC_P2(5) CHAR(1)	TEXSINCOM,      
       3 TECO_P2(5) CHAR(1)	TEXSINCOM,      
       3 ENTI_P2(5) CHAR(2)	TEXSINCOM,      
       3 TPAC2      CHAR(1)	TEXSINCOM,      
       3 TECO2      CHAR(1)	TEXSINCOM,      
       3 ENTI2      CHAR(2)	TEXSINCOM,      
       3 USR2       CHAR(3)	TEXSINCOM;      
