2001.09.06 13:39 B W:\AEI\Produccio\ictol\source\lib\dynapi\images\scroll2\metal\scroll-bgh.gif --> mis.ictnet.es /E:/MIS/ictonline/source/lib/dynapi/images/scroll2/metal scroll-bgh.gif
2001.09.06 13:39 B W:\AEI\Produccio\ictol\source\lib\dynapi\images\scroll2\metal\scroll-bgv.gif --> mis.ictnet.es /E:/MIS/ictonline/source/lib/dynapi/images/scroll2/metal scroll-bgv.gif
2001.09.06 13:39 B W:\AEI\Produccio\ictol\source\lib\dynapi\images\scroll2\metal\scroll-boxh.gif --> mis.ictnet.es /E:/MIS/ictonline/source/lib/dynapi/images/scroll2/metal scroll-boxh.gif
2001.09.06 13:39 B W:\AEI\Produccio\ictol\source\lib\dynapi\images\scroll2\metal\scroll-boxv.gif --> mis.ictnet.es /E:/MIS/ictonline/source/lib/dynapi/images/scroll2/metal scroll-boxv.gif
2001.09.06 13:39 B W:\AEI\Produccio\ictol\source\lib\dynapi\images\scroll2\metal\scroll-corner.gif --> mis.ictnet.es /E:/MIS/ictonline/source/lib/dynapi/images/scroll2/metal scroll-corner.gif
2001.09.06 13:39 B W:\AEI\Produccio\ictol\source\lib\dynapi\images\scroll2\metal\scroll-dn0.gif --> mis.ictnet.es /E:/MIS/ictonline/source/lib/dynapi/images/scroll2/metal scroll-dn0.gif
2001.09.06 13:39 B W:\AEI\Produccio\ictol\source\lib\dynapi\images\scroll2\metal\scroll-dn1.gif --> mis.ictnet.es /E:/MIS/ictonline/source/lib/dynapi/images/scroll2/metal scroll-dn1.gif
2001.09.06 13:39 B W:\AEI\Produccio\ictol\source\lib\dynapi\images\scroll2\metal\scroll-lt0.gif --> mis.ictnet.es /E:/MIS/ictonline/source/lib/dynapi/images/scroll2/metal scroll-lt0.gif
2001.09.06 13:39 B W:\AEI\Produccio\ictol\source\lib\dynapi\images\scroll2\metal\scroll-lt1.gif --> mis.ictnet.es /E:/MIS/ictonline/source/lib/dynapi/images/scroll2/metal scroll-lt1.gif
2001.09.06 13:39 B W:\AEI\Produccio\ictol\source\lib\dynapi\images\scroll2\metal\scroll-rt0.gif --> mis.ictnet.es /E:/MIS/ictonline/source/lib/dynapi/images/scroll2/metal scroll-rt0.gif
2001.09.06 13:39 B W:\AEI\Produccio\ictol\source\lib\dynapi\images\scroll2\metal\scroll-rt1.gif --> mis.ictnet.es /E:/MIS/ictonline/source/lib/dynapi/images/scroll2/metal scroll-rt1.gif
2001.09.06 13:39 B W:\AEI\Produccio\ictol\source\lib\dynapi\images\scroll2\metal\scroll-up0.gif --> mis.ictnet.es /E:/MIS/ictonline/source/lib/dynapi/images/scroll2/metal scroll-up0.gif
2001.09.06 13:39 B W:\AEI\Produccio\ictol\source\lib\dynapi\images\scroll2\metal\scroll-up1.gif --> mis.ictnet.es /E:/MIS/ictonline/source/lib/dynapi/images/scroll2/metal scroll-up1.gif
2001.09.26 15:48 B W:\AEI\Produccio\ictol\source\lib\dynapi\images\scroll2\metal\scroll-bgh.gif --> ictonline.ictnet.es /lib/dynapi/images/scroll2/metal scroll-bgh.gif
2001.09.26 15:48 B W:\AEI\Produccio\ictol\source\lib\dynapi\images\scroll2\metal\scroll-bgv.gif --> ictonline.ictnet.es /lib/dynapi/images/scroll2/metal scroll-bgv.gif
2001.09.26 15:48 B W:\AEI\Produccio\ictol\source\lib\dynapi\images\scroll2\metal\scroll-boxh.gif --> ictonline.ictnet.es /lib/dynapi/images/scroll2/metal scroll-boxh.gif
2001.09.26 15:48 B W:\AEI\Produccio\ictol\source\lib\dynapi\images\scroll2\metal\scroll-boxv.gif --> ictonline.ictnet.es /lib/dynapi/images/scroll2/metal scroll-boxv.gif
2001.09.26 15:48 B W:\AEI\Produccio\ictol\source\lib\dynapi\images\scroll2\metal\scroll-corner.gif --> ictonline.ictnet.es /lib/dynapi/images/scroll2/metal scroll-corner.gif
2001.09.26 15:48 B W:\AEI\Produccio\ictol\source\lib\dynapi\images\scroll2\metal\scroll-dn0.gif --> ictonline.ictnet.es /lib/dynapi/images/scroll2/metal scroll-dn0.gif
2001.09.26 15:48 B W:\AEI\Produccio\ictol\source\lib\dynapi\images\scroll2\metal\scroll-dn1.gif --> ictonline.ictnet.es /lib/dynapi/images/scroll2/metal scroll-dn1.gif
2001.09.26 15:48 B W:\AEI\Produccio\ictol\source\lib\dynapi\images\scroll2\metal\scroll-lt0.gif --> ictonline.ictnet.es /lib/dynapi/images/scroll2/metal scroll-lt0.gif
2001.09.26 15:48 B W:\AEI\Produccio\ictol\source\lib\dynapi\images\scroll2\metal\scroll-lt1.gif --> ictonline.ictnet.es /lib/dynapi/images/scroll2/metal scroll-lt1.gif
2001.09.26 15:48 B W:\AEI\Produccio\ictol\source\lib\dynapi\images\scroll2\metal\scroll-rt0.gif --> ictonline.ictnet.es /lib/dynapi/images/scroll2/metal scroll-rt0.gif
2001.09.26 15:48 B W:\AEI\Produccio\ictol\source\lib\dynapi\images\scroll2\metal\scroll-rt1.gif --> ictonline.ictnet.es /lib/dynapi/images/scroll2/metal scroll-rt1.gif
2001.09.26 15:48 B W:\AEI\Produccio\ictol\source\lib\dynapi\images\scroll2\metal\scroll-up0.gif --> ictonline.ictnet.es /lib/dynapi/images/scroll2/metal scroll-up0.gif
2001.09.26 15:48 B W:\AEI\Produccio\ictol\source\lib\dynapi\images\scroll2\metal\scroll-up1.gif --> ictonline.ictnet.es /lib/dynapi/images/scroll2/metal scroll-up1.gif
2001.09.26 15:48 B W:\AEI\Produccio\ictol\source\lib\dynapi\images\scroll2\metal\WS_FTP.LOG --> ictonline.ictnet.es /lib/dynapi/images/scroll2/metal WS_FTP.LOG
2001.10.23 11:39 B W:\AEI\Produccio\ictol\source\lib\dynapi\images\scroll2\metal\scroll-bgh.gif --> ictonline.ictnet.es /lib/dynapi/images/scroll2/metal scroll-bgh.gif
2001.10.23 11:39 B W:\AEI\Produccio\ictol\source\lib\dynapi\images\scroll2\metal\scroll-bgv.gif --> ictonline.ictnet.es /lib/dynapi/images/scroll2/metal scroll-bgv.gif
2001.10.23 11:39 B W:\AEI\Produccio\ictol\source\lib\dynapi\images\scroll2\metal\scroll-boxh.gif --> ictonline.ictnet.es /lib/dynapi/images/scroll2/metal scroll-boxh.gif
2001.10.23 11:39 B W:\AEI\Produccio\ictol\source\lib\dynapi\images\scroll2\metal\scroll-boxv.gif --> ictonline.ictnet.es /lib/dynapi/images/scroll2/metal scroll-boxv.gif
2001.10.23 11:39 B W:\AEI\Produccio\ictol\source\lib\dynapi\images\scroll2\metal\scroll-corner.gif --> ictonline.ictnet.es /lib/dynapi/images/scroll2/metal scroll-corner.gif
2001.10.23 11:39 B W:\AEI\Produccio\ictol\source\lib\dynapi\images\scroll2\metal\scroll-dn0.gif --> ictonline.ictnet.es /lib/dynapi/images/scroll2/metal scroll-dn0.gif
2001.10.23 11:39 B W:\AEI\Produccio\ictol\source\lib\dynapi\images\scroll2\metal\scroll-dn1.gif --> ictonline.ictnet.es /lib/dynapi/images/scroll2/metal scroll-dn1.gif
2001.10.23 11:39 B W:\AEI\Produccio\ictol\source\lib\dynapi\images\scroll2\metal\scroll-lt0.gif --> ictonline.ictnet.es /lib/dynapi/images/scroll2/metal scroll-lt0.gif
2001.10.23 11:39 B W:\AEI\Produccio\ictol\source\lib\dynapi\images\scroll2\metal\scroll-lt1.gif --> ictonline.ictnet.es /lib/dynapi/images/scroll2/metal scroll-lt1.gif
2001.10.23 11:39 B W:\AEI\Produccio\ictol\source\lib\dynapi\images\scroll2\metal\scroll-rt0.gif --> ictonline.ictnet.es /lib/dynapi/images/scroll2/metal scroll-rt0.gif
2001.10.23 11:39 B W:\AEI\Produccio\ictol\source\lib\dynapi\images\scroll2\metal\scroll-rt1.gif --> ictonline.ictnet.es /lib/dynapi/images/scroll2/metal scroll-rt1.gif
2001.10.23 11:39 B W:\AEI\Produccio\ictol\source\lib\dynapi\images\scroll2\metal\scroll-up0.gif --> ictonline.ictnet.es /lib/dynapi/images/scroll2/metal scroll-up0.gif
2001.10.23 11:39 B W:\AEI\Produccio\ictol\source\lib\dynapi\images\scroll2\metal\scroll-up1.gif --> ictonline.ictnet.es /lib/dynapi/images/scroll2/metal scroll-up1.gif
2001.10.23 11:39 B W:\AEI\Produccio\ictol\source\lib\dynapi\images\scroll2\metal\WS_FTP.LOG --> ictonline.ictnet.es /lib/dynapi/images/scroll2/metal WS_FTP.LOG
