hl02codsys_ori	hl02codsys_des	hl03numhandler	hl03sessionid	hl03minutos	hl03path	hl03filepref	hl03filesuff	hl03delfile	hl03movedir	hl03server	hl03port	hl03seqmsg	hl03begmsgchar	hl03endmsgchar
1	3	1	00129DA20001	1	c:\tmp\toLab	msg	.dat	0	c:\tmp\toLab\proc			1		"
"
3	1	1	000C196F0001	1	c:\tmp\fromLab	msg	.dat	1				1		
1	2	1	000BCA6D0001	1				0		srvmedora	19019	1		"
"
2	1	2	000C197B0001	1				1		jupiter	1929	1		"
"



