2001.09.06 13:40 B W:\AEI\Produccio\ictol\source\lib\dynduo\dynlayer.js --> mis.ictnet.es /E:/MIS/ictonline/source/lib/dynduo dynlayer.js
2001.09.06 13:40 B W:\AEI\Produccio\ictol\source\lib\dynduo\miniscroll.js --> mis.ictnet.es /E:/MIS/ictonline/source/lib/dynduo miniscroll.js
2001.09.26 15:49 B W:\AEI\Produccio\ictol\source\lib\dynduo\dynlayer.js --> ictonline.ictnet.es /lib/dynduo dynlayer.js
2001.09.26 15:49 B W:\AEI\Produccio\ictol\source\lib\dynduo\miniscroll.js --> ictonline.ictnet.es /lib/dynduo miniscroll.js
2001.09.26 15:49 B W:\AEI\Produccio\ictol\source\lib\dynduo\WS_FTP.LOG --> ictonline.ictnet.es /lib/dynduo WS_FTP.LOG
2001.10.23 11:40 B W:\AEI\Produccio\ictol\source\lib\dynduo\dynlayer.js --> ictonline.ictnet.es /lib/dynduo dynlayer.js
2001.10.23 11:40 B W:\AEI\Produccio\ictol\source\lib\dynduo\miniscroll.js --> ictonline.ictnet.es /lib/dynduo miniscroll.js
2001.10.23 11:40 B W:\AEI\Produccio\ictol\source\lib\dynduo\WS_FTP.LOG --> ictonline.ictnet.es /lib/dynduo WS_FTP.LOG
