2001.09.06 13:39 B W:\AEI\Produccio\ictol\source\lib\dynapi\images\button-submit0.gif --> mis.ictnet.es /E:/MIS/ictonline/source/lib/dynapi/images button-submit0.gif
2001.09.06 13:39 B W:\AEI\Produccio\ictol\source\lib\dynapi\images\button-submit1.gif --> mis.ictnet.es /E:/MIS/ictonline/source/lib/dynapi/images button-submit1.gif
2001.09.06 13:39 B W:\AEI\Produccio\ictol\source\lib\dynapi\images\buttonimage0.gif --> mis.ictnet.es /E:/MIS/ictonline/source/lib/dynapi/images buttonimage0.gif
2001.09.06 13:39 B W:\AEI\Produccio\ictol\source\lib\dynapi\images\buttonimage1.gif --> mis.ictnet.es /E:/MIS/ictonline/source/lib/dynapi/images buttonimage1.gif
2001.09.06 13:39 B W:\AEI\Produccio\ictol\source\lib\dynapi\images\buttonimage2-0.gif --> mis.ictnet.es /E:/MIS/ictonline/source/lib/dynapi/images buttonimage2-0.gif
2001.09.06 13:39 B W:\AEI\Produccio\ictol\source\lib\dynapi\images\buttonimage2.gif --> mis.ictnet.es /E:/MIS/ictonline/source/lib/dynapi/images buttonimage2.gif
2001.09.06 13:39 B W:\AEI\Produccio\ictol\source\lib\dynapi\images\checkbox0.gif --> mis.ictnet.es /E:/MIS/ictonline/source/lib/dynapi/images checkbox0.gif
2001.09.06 13:39 B W:\AEI\Produccio\ictol\source\lib\dynapi\images\checkbox1.gif --> mis.ictnet.es /E:/MIS/ictonline/source/lib/dynapi/images checkbox1.gif
2001.09.06 13:39 B W:\AEI\Produccio\ictol\source\lib\dynapi\images\folder.gif --> mis.ictnet.es /E:/MIS/ictonline/source/lib/dynapi/images folder.gif
2001.09.06 13:39 B W:\AEI\Produccio\ictol\source\lib\dynapi\images\list-node0.gif --> mis.ictnet.es /E:/MIS/ictonline/source/lib/dynapi/images list-node0.gif
2001.09.06 13:39 B W:\AEI\Produccio\ictol\source\lib\dynapi\images\list-node1.gif --> mis.ictnet.es /E:/MIS/ictonline/source/lib/dynapi/images list-node1.gif
2001.09.06 13:39 B W:\AEI\Produccio\ictol\source\lib\dynapi\images\progressbar.gif --> mis.ictnet.es /E:/MIS/ictonline/source/lib/dynapi/images progressbar.gif
2001.09.06 13:39 B W:\AEI\Produccio\ictol\source\lib\dynapi\images\pushpanel-dn0.gif --> mis.ictnet.es /E:/MIS/ictonline/source/lib/dynapi/images pushpanel-dn0.gif
2001.09.06 13:39 B W:\AEI\Produccio\ictol\source\lib\dynapi\images\pushpanel-dn1.gif --> mis.ictnet.es /E:/MIS/ictonline/source/lib/dynapi/images pushpanel-dn1.gif
2001.09.06 13:39 B W:\AEI\Produccio\ictol\source\lib\dynapi\images\pushpanel-lt0.gif --> mis.ictnet.es /E:/MIS/ictonline/source/lib/dynapi/images pushpanel-lt0.gif
2001.09.06 13:39 B W:\AEI\Produccio\ictol\source\lib\dynapi\images\pushpanel-lt1.gif --> mis.ictnet.es /E:/MIS/ictonline/source/lib/dynapi/images pushpanel-lt1.gif
2001.09.06 13:39 B W:\AEI\Produccio\ictol\source\lib\dynapi\images\pushpanel-rt0.gif --> mis.ictnet.es /E:/MIS/ictonline/source/lib/dynapi/images pushpanel-rt0.gif
2001.09.06 13:39 B W:\AEI\Produccio\ictol\source\lib\dynapi\images\pushpanel-rt1.gif --> mis.ictnet.es /E:/MIS/ictonline/source/lib/dynapi/images pushpanel-rt1.gif
2001.09.06 13:39 B W:\AEI\Produccio\ictol\source\lib\dynapi\images\pushpanel-up0.gif --> mis.ictnet.es /E:/MIS/ictonline/source/lib/dynapi/images pushpanel-up0.gif
2001.09.06 13:39 B W:\AEI\Produccio\ictol\source\lib\dynapi\images\pushpanel-up1.gif --> mis.ictnet.es /E:/MIS/ictonline/source/lib/dynapi/images pushpanel-up1.gif
2001.09.06 13:39 B W:\AEI\Produccio\ictol\source\lib\dynapi\images\radio0.gif --> mis.ictnet.es /E:/MIS/ictonline/source/lib/dynapi/images radio0.gif
2001.09.06 13:39 B W:\AEI\Produccio\ictol\source\lib\dynapi\images\radio1.gif --> mis.ictnet.es /E:/MIS/ictonline/source/lib/dynapi/images radio1.gif
2001.09.06 13:39 B W:\AEI\Produccio\ictol\source\lib\dynapi\images\select-imgL.gif --> mis.ictnet.es /E:/MIS/ictonline/source/lib/dynapi/images select-imgL.gif
2001.09.06 13:39 B W:\AEI\Produccio\ictol\source\lib\dynapi\images\select-imgM.gif --> mis.ictnet.es /E:/MIS/ictonline/source/lib/dynapi/images select-imgM.gif
2001.09.06 13:39 B W:\AEI\Produccio\ictol\source\lib\dynapi\images\select-imgR.gif --> mis.ictnet.es /E:/MIS/ictonline/source/lib/dynapi/images select-imgR.gif
2001.09.06 13:39 B W:\AEI\Produccio\ictol\source\lib\dynapi\images\tabs-bg0.gif --> mis.ictnet.es /E:/MIS/ictonline/source/lib/dynapi/images tabs-bg0.gif
2001.09.06 13:39 B W:\AEI\Produccio\ictol\source\lib\dynapi\images\tabs-bg1.gif --> mis.ictnet.es /E:/MIS/ictonline/source/lib/dynapi/images tabs-bg1.gif
2001.09.06 13:39 B W:\AEI\Produccio\ictol\source\lib\dynapi\images\tabs-end0.gif --> mis.ictnet.es /E:/MIS/ictonline/source/lib/dynapi/images tabs-end0.gif
2001.09.06 13:39 B W:\AEI\Produccio\ictol\source\lib\dynapi\images\tabs-end1.gif --> mis.ictnet.es /E:/MIS/ictonline/source/lib/dynapi/images tabs-end1.gif
2001.09.06 13:39 B W:\AEI\Produccio\ictol\source\lib\dynapi\images\tabs-ext.gif --> mis.ictnet.es /E:/MIS/ictonline/source/lib/dynapi/images tabs-ext.gif
2001.09.06 13:39 B W:\AEI\Produccio\ictol\source\lib\dynapi\images\tabs-l0.gif --> mis.ictnet.es /E:/MIS/ictonline/source/lib/dynapi/images tabs-l0.gif
2001.09.06 13:39 B W:\AEI\Produccio\ictol\source\lib\dynapi\images\tabs-l1.gif --> mis.ictnet.es /E:/MIS/ictonline/source/lib/dynapi/images tabs-l1.gif
2001.09.06 13:39 B W:\AEI\Produccio\ictol\source\lib\dynapi\images\tabs-r0.gif --> mis.ictnet.es /E:/MIS/ictonline/source/lib/dynapi/images tabs-r0.gif
2001.09.06 13:39 B W:\AEI\Produccio\ictol\source\lib\dynapi\images\tabs-r1.gif --> mis.ictnet.es /E:/MIS/ictonline/source/lib/dynapi/images tabs-r1.gif
2001.09.06 13:39 B W:\AEI\Produccio\ictol\source\lib\dynapi\images\tabs-sepl.gif --> mis.ictnet.es /E:/MIS/ictonline/source/lib/dynapi/images tabs-sepl.gif
2001.09.06 13:39 B W:\AEI\Produccio\ictol\source\lib\dynapi\images\tabs-sepm.gif --> mis.ictnet.es /E:/MIS/ictonline/source/lib/dynapi/images tabs-sepm.gif
2001.09.06 13:39 B W:\AEI\Produccio\ictol\source\lib\dynapi\images\tabs-sepr.gif --> mis.ictnet.es /E:/MIS/ictonline/source/lib/dynapi/images tabs-sepr.gif
2001.09.06 13:39 B W:\AEI\Produccio\ictol\source\lib\dynapi\images\tabs-start0.gif --> mis.ictnet.es /E:/MIS/ictonline/source/lib/dynapi/images tabs-start0.gif
2001.09.06 13:39 B W:\AEI\Produccio\ictol\source\lib\dynapi\images\tabs-start1.gif --> mis.ictnet.es /E:/MIS/ictonline/source/lib/dynapi/images tabs-start1.gif
2001.09.26 15:48 B W:\AEI\Produccio\ictol\source\lib\dynapi\images\button-submit0.gif --> ictonline.ictnet.es /lib/dynapi/images button-submit0.gif
2001.09.26 15:48 B W:\AEI\Produccio\ictol\source\lib\dynapi\images\button-submit1.gif --> ictonline.ictnet.es /lib/dynapi/images button-submit1.gif
2001.09.26 15:48 B W:\AEI\Produccio\ictol\source\lib\dynapi\images\buttonimage0.gif --> ictonline.ictnet.es /lib/dynapi/images buttonimage0.gif
2001.09.26 15:48 B W:\AEI\Produccio\ictol\source\lib\dynapi\images\buttonimage1.gif --> ictonline.ictnet.es /lib/dynapi/images buttonimage1.gif
2001.09.26 15:48 B W:\AEI\Produccio\ictol\source\lib\dynapi\images\buttonimage2-0.gif --> ictonline.ictnet.es /lib/dynapi/images buttonimage2-0.gif
2001.09.26 15:48 B W:\AEI\Produccio\ictol\source\lib\dynapi\images\buttonimage2.gif --> ictonline.ictnet.es /lib/dynapi/images buttonimage2.gif
2001.09.26 15:48 B W:\AEI\Produccio\ictol\source\lib\dynapi\images\checkbox0.gif --> ictonline.ictnet.es /lib/dynapi/images checkbox0.gif
2001.09.26 15:48 B W:\AEI\Produccio\ictol\source\lib\dynapi\images\checkbox1.gif --> ictonline.ictnet.es /lib/dynapi/images checkbox1.gif
2001.09.26 15:48 B W:\AEI\Produccio\ictol\source\lib\dynapi\images\folder.gif --> ictonline.ictnet.es /lib/dynapi/images folder.gif
2001.09.26 15:48 B W:\AEI\Produccio\ictol\source\lib\dynapi\images\list-node0.gif --> ictonline.ictnet.es /lib/dynapi/images list-node0.gif
2001.09.26 15:48 B W:\AEI\Produccio\ictol\source\lib\dynapi\images\list-node1.gif --> ictonline.ictnet.es /lib/dynapi/images list-node1.gif
2001.09.26 15:48 B W:\AEI\Produccio\ictol\source\lib\dynapi\images\progressbar.gif --> ictonline.ictnet.es /lib/dynapi/images progressbar.gif
2001.09.26 15:48 B W:\AEI\Produccio\ictol\source\lib\dynapi\images\pushpanel-dn0.gif --> ictonline.ictnet.es /lib/dynapi/images pushpanel-dn0.gif
2001.09.26 15:48 B W:\AEI\Produccio\ictol\source\lib\dynapi\images\pushpanel-dn1.gif --> ictonline.ictnet.es /lib/dynapi/images pushpanel-dn1.gif
2001.09.26 15:48 B W:\AEI\Produccio\ictol\source\lib\dynapi\images\pushpanel-lt0.gif --> ictonline.ictnet.es /lib/dynapi/images pushpanel-lt0.gif
2001.09.26 15:48 B W:\AEI\Produccio\ictol\source\lib\dynapi\images\pushpanel-lt1.gif --> ictonline.ictnet.es /lib/dynapi/images pushpanel-lt1.gif
2001.09.26 15:48 B W:\AEI\Produccio\ictol\source\lib\dynapi\images\pushpanel-rt0.gif --> ictonline.ictnet.es /lib/dynapi/images pushpanel-rt0.gif
2001.09.26 15:48 B W:\AEI\Produccio\ictol\source\lib\dynapi\images\pushpanel-rt1.gif --> ictonline.ictnet.es /lib/dynapi/images pushpanel-rt1.gif
2001.09.26 15:48 B W:\AEI\Produccio\ictol\source\lib\dynapi\images\pushpanel-up0.gif --> ictonline.ictnet.es /lib/dynapi/images pushpanel-up0.gif
2001.09.26 15:48 B W:\AEI\Produccio\ictol\source\lib\dynapi\images\pushpanel-up1.gif --> ictonline.ictnet.es /lib/dynapi/images pushpanel-up1.gif
2001.09.26 15:48 B W:\AEI\Produccio\ictol\source\lib\dynapi\images\radio0.gif --> ictonline.ictnet.es /lib/dynapi/images radio0.gif
2001.09.26 15:48 B W:\AEI\Produccio\ictol\source\lib\dynapi\images\radio1.gif --> ictonline.ictnet.es /lib/dynapi/images radio1.gif
2001.09.26 15:48 B W:\AEI\Produccio\ictol\source\lib\dynapi\images\select-imgL.gif --> ictonline.ictnet.es /lib/dynapi/images select-imgL.gif
2001.09.26 15:48 B W:\AEI\Produccio\ictol\source\lib\dynapi\images\select-imgM.gif --> ictonline.ictnet.es /lib/dynapi/images select-imgM.gif
2001.09.26 15:48 B W:\AEI\Produccio\ictol\source\lib\dynapi\images\select-imgR.gif --> ictonline.ictnet.es /lib/dynapi/images select-imgR.gif
2001.09.26 15:48 B W:\AEI\Produccio\ictol\source\lib\dynapi\images\tabs-bg0.gif --> ictonline.ictnet.es /lib/dynapi/images tabs-bg0.gif
2001.09.26 15:48 B W:\AEI\Produccio\ictol\source\lib\dynapi\images\tabs-bg1.gif --> ictonline.ictnet.es /lib/dynapi/images tabs-bg1.gif
2001.09.26 15:48 B W:\AEI\Produccio\ictol\source\lib\dynapi\images\tabs-end0.gif --> ictonline.ictnet.es /lib/dynapi/images tabs-end0.gif
2001.09.26 15:48 B W:\AEI\Produccio\ictol\source\lib\dynapi\images\tabs-end1.gif --> ictonline.ictnet.es /lib/dynapi/images tabs-end1.gif
2001.09.26 15:48 B W:\AEI\Produccio\ictol\source\lib\dynapi\images\tabs-ext.gif --> ictonline.ictnet.es /lib/dynapi/images tabs-ext.gif
2001.09.26 15:48 B W:\AEI\Produccio\ictol\source\lib\dynapi\images\tabs-l0.gif --> ictonline.ictnet.es /lib/dynapi/images tabs-l0.gif
2001.09.26 15:48 B W:\AEI\Produccio\ictol\source\lib\dynapi\images\tabs-l1.gif --> ictonline.ictnet.es /lib/dynapi/images tabs-l1.gif
2001.09.26 15:48 B W:\AEI\Produccio\ictol\source\lib\dynapi\images\tabs-r0.gif --> ictonline.ictnet.es /lib/dynapi/images tabs-r0.gif
2001.09.26 15:48 B W:\AEI\Produccio\ictol\source\lib\dynapi\images\tabs-r1.gif --> ictonline.ictnet.es /lib/dynapi/images tabs-r1.gif
2001.09.26 15:48 B W:\AEI\Produccio\ictol\source\lib\dynapi\images\tabs-sepl.gif --> ictonline.ictnet.es /lib/dynapi/images tabs-sepl.gif
2001.09.26 15:48 B W:\AEI\Produccio\ictol\source\lib\dynapi\images\tabs-sepm.gif --> ictonline.ictnet.es /lib/dynapi/images tabs-sepm.gif
2001.09.26 15:48 B W:\AEI\Produccio\ictol\source\lib\dynapi\images\tabs-sepr.gif --> ictonline.ictnet.es /lib/dynapi/images tabs-sepr.gif
2001.09.26 15:48 B W:\AEI\Produccio\ictol\source\lib\dynapi\images\tabs-start0.gif --> ictonline.ictnet.es /lib/dynapi/images tabs-start0.gif
2001.09.26 15:48 B W:\AEI\Produccio\ictol\source\lib\dynapi\images\tabs-start1.gif --> ictonline.ictnet.es /lib/dynapi/images tabs-start1.gif
2001.09.26 15:48 B W:\AEI\Produccio\ictol\source\lib\dynapi\images\WS_FTP.LOG --> ictonline.ictnet.es /lib/dynapi/images WS_FTP.LOG
2001.10.23 11:40 B W:\AEI\Produccio\ictol\source\lib\dynapi\images\button-submit0.gif --> ictonline.ictnet.es /lib/dynapi/images button-submit0.gif
2001.10.23 11:40 B W:\AEI\Produccio\ictol\source\lib\dynapi\images\button-submit1.gif --> ictonline.ictnet.es /lib/dynapi/images button-submit1.gif
2001.10.23 11:40 B W:\AEI\Produccio\ictol\source\lib\dynapi\images\buttonimage0.gif --> ictonline.ictnet.es /lib/dynapi/images buttonimage0.gif
2001.10.23 11:40 B W:\AEI\Produccio\ictol\source\lib\dynapi\images\buttonimage1.gif --> ictonline.ictnet.es /lib/dynapi/images buttonimage1.gif
2001.10.23 11:40 B W:\AEI\Produccio\ictol\source\lib\dynapi\images\buttonimage2-0.gif --> ictonline.ictnet.es /lib/dynapi/images buttonimage2-0.gif
2001.10.23 11:40 B W:\AEI\Produccio\ictol\source\lib\dynapi\images\buttonimage2.gif --> ictonline.ictnet.es /lib/dynapi/images buttonimage2.gif
2001.10.23 11:40 B W:\AEI\Produccio\ictol\source\lib\dynapi\images\checkbox0.gif --> ictonline.ictnet.es /lib/dynapi/images checkbox0.gif
2001.10.23 11:40 B W:\AEI\Produccio\ictol\source\lib\dynapi\images\checkbox1.gif --> ictonline.ictnet.es /lib/dynapi/images checkbox1.gif
2001.10.23 11:40 B W:\AEI\Produccio\ictol\source\lib\dynapi\images\folder.gif --> ictonline.ictnet.es /lib/dynapi/images folder.gif
2001.10.23 11:40 B W:\AEI\Produccio\ictol\source\lib\dynapi\images\list-node0.gif --> ictonline.ictnet.es /lib/dynapi/images list-node0.gif
2001.10.23 11:40 B W:\AEI\Produccio\ictol\source\lib\dynapi\images\list-node1.gif --> ictonline.ictnet.es /lib/dynapi/images list-node1.gif
2001.10.23 11:40 B W:\AEI\Produccio\ictol\source\lib\dynapi\images\progressbar.gif --> ictonline.ictnet.es /lib/dynapi/images progressbar.gif
2001.10.23 11:40 B W:\AEI\Produccio\ictol\source\lib\dynapi\images\pushpanel-dn0.gif --> ictonline.ictnet.es /lib/dynapi/images pushpanel-dn0.gif
2001.10.23 11:40 B W:\AEI\Produccio\ictol\source\lib\dynapi\images\pushpanel-dn1.gif --> ictonline.ictnet.es /lib/dynapi/images pushpanel-dn1.gif
2001.10.23 11:40 B W:\AEI\Produccio\ictol\source\lib\dynapi\images\pushpanel-lt0.gif --> ictonline.ictnet.es /lib/dynapi/images pushpanel-lt0.gif
2001.10.23 11:40 B W:\AEI\Produccio\ictol\source\lib\dynapi\images\pushpanel-lt1.gif --> ictonline.ictnet.es /lib/dynapi/images pushpanel-lt1.gif
2001.10.23 11:40 B W:\AEI\Produccio\ictol\source\lib\dynapi\images\pushpanel-rt0.gif --> ictonline.ictnet.es /lib/dynapi/images pushpanel-rt0.gif
2001.10.23 11:40 B W:\AEI\Produccio\ictol\source\lib\dynapi\images\pushpanel-rt1.gif --> ictonline.ictnet.es /lib/dynapi/images pushpanel-rt1.gif
2001.10.23 11:40 B W:\AEI\Produccio\ictol\source\lib\dynapi\images\pushpanel-up0.gif --> ictonline.ictnet.es /lib/dynapi/images pushpanel-up0.gif
2001.10.23 11:40 B W:\AEI\Produccio\ictol\source\lib\dynapi\images\pushpanel-up1.gif --> ictonline.ictnet.es /lib/dynapi/images pushpanel-up1.gif
2001.10.23 11:40 B W:\AEI\Produccio\ictol\source\lib\dynapi\images\radio0.gif --> ictonline.ictnet.es /lib/dynapi/images radio0.gif
2001.10.23 11:40 B W:\AEI\Produccio\ictol\source\lib\dynapi\images\radio1.gif --> ictonline.ictnet.es /lib/dynapi/images radio1.gif
2001.10.23 11:40 B W:\AEI\Produccio\ictol\source\lib\dynapi\images\select-imgL.gif --> ictonline.ictnet.es /lib/dynapi/images select-imgL.gif
2001.10.23 11:40 B W:\AEI\Produccio\ictol\source\lib\dynapi\images\select-imgM.gif --> ictonline.ictnet.es /lib/dynapi/images select-imgM.gif
2001.10.23 11:40 B W:\AEI\Produccio\ictol\source\lib\dynapi\images\select-imgR.gif --> ictonline.ictnet.es /lib/dynapi/images select-imgR.gif
2001.10.23 11:40 B W:\AEI\Produccio\ictol\source\lib\dynapi\images\tabs-bg0.gif --> ictonline.ictnet.es /lib/dynapi/images tabs-bg0.gif
2001.10.23 11:40 B W:\AEI\Produccio\ictol\source\lib\dynapi\images\tabs-bg1.gif --> ictonline.ictnet.es /lib/dynapi/images tabs-bg1.gif
2001.10.23 11:40 B W:\AEI\Produccio\ictol\source\lib\dynapi\images\tabs-end0.gif --> ictonline.ictnet.es /lib/dynapi/images tabs-end0.gif
2001.10.23 11:40 B W:\AEI\Produccio\ictol\source\lib\dynapi\images\tabs-end1.gif --> ictonline.ictnet.es /lib/dynapi/images tabs-end1.gif
2001.10.23 11:40 B W:\AEI\Produccio\ictol\source\lib\dynapi\images\tabs-ext.gif --> ictonline.ictnet.es /lib/dynapi/images tabs-ext.gif
2001.10.23 11:40 B W:\AEI\Produccio\ictol\source\lib\dynapi\images\tabs-l0.gif --> ictonline.ictnet.es /lib/dynapi/images tabs-l0.gif
2001.10.23 11:40 B W:\AEI\Produccio\ictol\source\lib\dynapi\images\tabs-l1.gif --> ictonline.ictnet.es /lib/dynapi/images tabs-l1.gif
2001.10.23 11:40 B W:\AEI\Produccio\ictol\source\lib\dynapi\images\tabs-r0.gif --> ictonline.ictnet.es /lib/dynapi/images tabs-r0.gif
2001.10.23 11:40 B W:\AEI\Produccio\ictol\source\lib\dynapi\images\tabs-r1.gif --> ictonline.ictnet.es /lib/dynapi/images tabs-r1.gif
2001.10.23 11:40 B W:\AEI\Produccio\ictol\source\lib\dynapi\images\tabs-sepl.gif --> ictonline.ictnet.es /lib/dynapi/images tabs-sepl.gif
2001.10.23 11:40 B W:\AEI\Produccio\ictol\source\lib\dynapi\images\tabs-sepm.gif --> ictonline.ictnet.es /lib/dynapi/images tabs-sepm.gif
2001.10.23 11:40 B W:\AEI\Produccio\ictol\source\lib\dynapi\images\tabs-sepr.gif --> ictonline.ictnet.es /lib/dynapi/images tabs-sepr.gif
2001.10.23 11:40 B W:\AEI\Produccio\ictol\source\lib\dynapi\images\tabs-start0.gif --> ictonline.ictnet.es /lib/dynapi/images tabs-start0.gif
2001.10.23 11:40 B W:\AEI\Produccio\ictol\source\lib\dynapi\images\tabs-start1.gif --> ictonline.ictnet.es /lib/dynapi/images tabs-start1.gif
2001.10.23 11:40 B W:\AEI\Produccio\ictol\source\lib\dynapi\images\WS_FTP.LOG --> ictonline.ictnet.es /lib/dynapi/images WS_FTP.LOG
