AMIKACIN 704
CY A (WB)
THEOPHYLLINE 707
COCAINE METAB U 302
GENTAMICIN 705
AMPHET/METH U 294
CANNABINOIDS U 299
VANCOMYCIN 709
ASSAY 92________
BENZODIAZEPINE U 298
TOBRAMYCIN 708
BARBITURATES U 297